%YAML 1.1
%TAG !u! tag:unity3d.com,2011:
--- !u!1001 &6161971617440707075
PrefabInstance:
  m_ObjectHideFlags: 0
  serializedVersion: 2
  m_Modification:
    m_TransformParent: {fileID: 0}
    m_Modifications:
    - target: {fileID: 203998808589189425, guid: 81008e71b4ec24f18927d3ffcf8e6971,
        type: 3}
      propertyPath: m_LocalPosition.x
      value: -0.0052684615
      objectReference: {fileID: 0}
    - target: {fileID: 203998808589189425, guid: 81008e71b4ec24f18927d3ffcf8e6971,
        type: 3}
      propertyPath: m_LocalPosition.y
      value: -0.00016274971
      objectReference: {fileID: 0}
    - target: {fileID: 203998808589189425, guid: 81008e71b4ec24f18927d3ffcf8e6971,
        type: 3}
      propertyPath: m_LocalPosition.z
      value: 0.0024134554
      objectReference: {fileID: 0}
    - target: {fileID: 203998808589189425, guid: 81008e71b4ec24f18927d3ffcf8e6971,
        type: 3}
      propertyPath: m_LocalRotation.w
      value: 0.0035810992
      objectReference: {fileID: 0}
    - target: {fileID: 203998808589189425, guid: 81008e71b4ec24f18927d3ffcf8e6971,
        type: 3}
      propertyPath: m_LocalRotation.x
      value: 0.0054684593
      objectReference: {fileID: 0}
    - target: {fileID: 203998808589189425, guid: 81008e71b4ec24f18927d3ffcf8e6971,
        type: 3}
      propertyPath: m_LocalRotation.y
      value: 0.7071614
      objectReference: {fileID: 0}
    - target: {fileID: 203998808589189425, guid: 81008e71b4ec24f18927d3ffcf8e6971,
        type: 3}
      propertyPath: m_LocalRotation.z
      value: -0.7070219
      objectReference: {fileID: 0}
    - target: {fileID: 773109020715729757, guid: 81008e71b4ec24f18927d3ffcf8e6971,
        type: 3}
      propertyPath: m_LocalPosition.x
      value: 0.005268463
      objectReference: {fileID: 0}
    - target: {fileID: 773109020715729757, guid: 81008e71b4ec24f18927d3ffcf8e6971,
        type: 3}
      propertyPath: m_LocalPosition.y
      value: -0.0001627503
      objectReference: {fileID: 0}
    - target: {fileID: 773109020715729757, guid: 81008e71b4ec24f18927d3ffcf8e6971,
        type: 3}
      propertyPath: m_LocalPosition.z
      value: 0.0024134533
      objectReference: {fileID: 0}
    - target: {fileID: 773109020715729757, guid: 81008e71b4ec24f18927d3ffcf8e6971,
        type: 3}
      propertyPath: m_LocalRotation.w
      value: -0.0035812347
      objectReference: {fileID: 0}
    - target: {fileID: 773109020715729757, guid: 81008e71b4ec24f18927d3ffcf8e6971,
        type: 3}
      propertyPath: m_LocalRotation.x
      value: -0.0054687
      objectReference: {fileID: 0}
    - target: {fileID: 773109020715729757, guid: 81008e71b4ec24f18927d3ffcf8e6971,
        type: 3}
      propertyPath: m_LocalRotation.y
      value: 0.7071614
      objectReference: {fileID: 0}
    - target: {fileID: 773109020715729757, guid: 81008e71b4ec24f18927d3ffcf8e6971,
        type: 3}
      propertyPath: m_LocalRotation.z
      value: -0.7070219
      objectReference: {fileID: 0}
    - target: {fileID: 2410035510460179420, guid: 81008e71b4ec24f18927d3ffcf8e6971,
        type: 3}
      propertyPath: m_Name
      value: ChickenLevel03
      objectReference: {fileID: 0}
    - target: {fileID: 2410035510460179422, guid: 81008e71b4ec24f18927d3ffcf8e6971,
        type: 3}
      propertyPath: m_RootOrder
      value: 0
      objectReference: {fileID: 0}
    - target: {fileID: 2410035510460179422, guid: 81008e71b4ec24f18927d3ffcf8e6971,
        type: 3}
      propertyPath: m_LocalScale.x
      value: 1.3
      objectReference: {fileID: 0}
    - target: {fileID: 2410035510460179422, guid: 81008e71b4ec24f18927d3ffcf8e6971,
        type: 3}
      propertyPath: m_LocalScale.y
      value: 1.3
      objectReference: {fileID: 0}
    - target: {fileID: 2410035510460179422, guid: 81008e71b4ec24f18927d3ffcf8e6971,
        type: 3}
      propertyPath: m_LocalScale.z
      value: 1.3
      objectReference: {fileID: 0}
    - target: {fileID: 2410035510460179422, guid: 81008e71b4ec24f18927d3ffcf8e6971,
        type: 3}
      propertyPath: m_LocalPosition.x
      value: -6.54
      objectReference: {fileID: 0}
    - target: {fileID: 2410035510460179422, guid: 81008e71b4ec24f18927d3ffcf8e6971,
        type: 3}
      propertyPath: m_LocalPosition.y
      value: 1.5
      objectReference: {fileID: 0}
    - target: {fileID: 2410035510460179422, guid: 81008e71b4ec24f18927d3ffcf8e6971,
        type: 3}
      propertyPath: m_LocalPosition.z
      value: -2.55
      objectReference: {fileID: 0}
    - target: {fileID: 2410035510460179422, guid: 81008e71b4ec24f18927d3ffcf8e6971,
        type: 3}
      propertyPath: m_LocalRotation.w
      value: 1
      objectReference: {fileID: 0}
    - target: {fileID: 2410035510460179422, guid: 81008e71b4ec24f18927d3ffcf8e6971,
        type: 3}
      propertyPath: m_LocalRotation.x
      value: 0
      objectReference: {fileID: 0}
    - target: {fileID: 2410035510460179422, guid: 81008e71b4ec24f18927d3ffcf8e6971,
        type: 3}
      propertyPath: m_LocalRotation.y
      value: 0
      objectReference: {fileID: 0}
    - target: {fileID: 2410035510460179422, guid: 81008e71b4ec24f18927d3ffcf8e6971,
        type: 3}
      propertyPath: m_LocalRotation.z
      value: 0
      objectReference: {fileID: 0}
    - target: {fileID: 2410035510460179422, guid: 81008e71b4ec24f18927d3ffcf8e6971,
        type: 3}
      propertyPath: m_LocalEulerAnglesHint.x
      value: 0
      objectReference: {fileID: 0}
    - target: {fileID: 2410035510460179422, guid: 81008e71b4ec24f18927d3ffcf8e6971,
        type: 3}
      propertyPath: m_LocalEulerAnglesHint.y
      value: 0
      objectReference: {fileID: 0}
    - target: {fileID: 2410035510460179422, guid: 81008e71b4ec24f18927d3ffcf8e6971,
        type: 3}
      propertyPath: m_LocalEulerAnglesHint.z
      value: 0
      objectReference: {fileID: 0}
    - target: {fileID: 2410035510460179423, guid: 81008e71b4ec24f18927d3ffcf8e6971,
        type: 3}
      propertyPath: m_eggPrefab
      value: 
      objectReference: {fileID: 3656983626055044123, guid: 8885ad75afee045ebb35fa6a30f275f1,
        type: 3}
    - target: {fileID: 2410035510460179423, guid: 81008e71b4ec24f18927d3ffcf8e6971,
        type: 3}
      propertyPath: m_chickenLevel
      value: 13
      objectReference: {fileID: 0}
    - target: {fileID: 2410035510460179423, guid: 81008e71b4ec24f18927d3ffcf8e6971,
        type: 3}
      propertyPath: m_spawnFeatherPrefab
      value: 
      objectReference: {fileID: 5500337634026434723, guid: 003540d9428b9423db3dc7caf63012fc,
        type: 3}
    - target: {fileID: 4941558630860826468, guid: 81008e71b4ec24f18927d3ffcf8e6971,
        type: 3}
      propertyPath: m_LocalPosition.x
      value: -0.00000000224654
      objectReference: {fileID: 0}
    - target: {fileID: 4941558630860826468, guid: 81008e71b4ec24f18927d3ffcf8e6971,
        type: 3}
      propertyPath: m_LocalPosition.y
      value: 0.0008456381
      objectReference: {fileID: 0}
    - target: {fileID: 4941558630860826468, guid: 81008e71b4ec24f18927d3ffcf8e6971,
        type: 3}
      propertyPath: m_LocalPosition.z
      value: -0.0050351727
      objectReference: {fileID: 0}
    - target: {fileID: 4941558630860826468, guid: 81008e71b4ec24f18927d3ffcf8e6971,
        type: 3}
      propertyPath: m_LocalRotation.w
      value: 0.8248716
      objectReference: {fileID: 0}
    - target: {fileID: 4941558630860826468, guid: 81008e71b4ec24f18927d3ffcf8e6971,
        type: 3}
      propertyPath: m_LocalRotation.x
      value: -0.56532013
      objectReference: {fileID: 0}
    - target: {fileID: 4941558630860826468, guid: 81008e71b4ec24f18927d3ffcf8e6971,
        type: 3}
      propertyPath: m_LocalRotation.y
      value: 0.000000106345695
      objectReference: {fileID: 0}
    - target: {fileID: 4941558630860826468, guid: 81008e71b4ec24f18927d3ffcf8e6971,
        type: 3}
      propertyPath: m_LocalRotation.z
      value: 0.00000007540479
      objectReference: {fileID: 0}
    - target: {fileID: 5103818126792538558, guid: 81008e71b4ec24f18927d3ffcf8e6971,
        type: 3}
      propertyPath: m_Materials.Array.data[0]
      value: 
      objectReference: {fileID: 0}
    - target: {fileID: 6070019774573860427, guid: 81008e71b4ec24f18927d3ffcf8e6971,
        type: 3}
      propertyPath: m_LocalPosition.x
      value: -0.002028496
      objectReference: {fileID: 0}
    - target: {fileID: 6070019774573860427, guid: 81008e71b4ec24f18927d3ffcf8e6971,
        type: 3}
      propertyPath: m_LocalPosition.y
      value: -0.0024558257
      objectReference: {fileID: 0}
    - target: {fileID: 6070019774573860427, guid: 81008e71b4ec24f18927d3ffcf8e6971,
        type: 3}
      propertyPath: m_LocalPosition.z
      value: 0.0005356043
      objectReference: {fileID: 0}
    - target: {fileID: 6070019774573860427, guid: 81008e71b4ec24f18927d3ffcf8e6971,
        type: 3}
      propertyPath: m_LocalRotation.w
      value: 0.000000085111346
      objectReference: {fileID: 0}
    - target: {fileID: 6070019774573860427, guid: 81008e71b4ec24f18927d3ffcf8e6971,
        type: 3}
      propertyPath: m_LocalRotation.x
      value: 0.00000018234213
      objectReference: {fileID: 0}
    - target: {fileID: 6070019774573860427, guid: 81008e71b4ec24f18927d3ffcf8e6971,
        type: 3}
      propertyPath: m_LocalRotation.y
      value: 0.2825119
      objectReference: {fileID: 0}
    - target: {fileID: 6070019774573860427, guid: 81008e71b4ec24f18927d3ffcf8e6971,
        type: 3}
      propertyPath: m_LocalRotation.z
      value: 0.9592638
      objectReference: {fileID: 0}
    - target: {fileID: 6307016477827788512, guid: 81008e71b4ec24f18927d3ffcf8e6971,
        type: 3}
      propertyPath: m_LocalScale.z
      value: 1.0000001
      objectReference: {fileID: 0}
    - target: {fileID: 6307016477827788512, guid: 81008e71b4ec24f18927d3ffcf8e6971,
        type: 3}
      propertyPath: m_LocalPosition.x
      value: -1.1262038e-10
      objectReference: {fileID: 0}
    - target: {fileID: 6307016477827788512, guid: 81008e71b4ec24f18927d3ffcf8e6971,
        type: 3}
      propertyPath: m_LocalPosition.y
      value: 0.011233038
      objectReference: {fileID: 0}
    - target: {fileID: 6307016477827788512, guid: 81008e71b4ec24f18927d3ffcf8e6971,
        type: 3}
      propertyPath: m_LocalPosition.z
      value: 0.002540117
      objectReference: {fileID: 0}
    - target: {fileID: 6307016477827788512, guid: 81008e71b4ec24f18927d3ffcf8e6971,
        type: 3}
      propertyPath: m_LocalRotation.w
      value: 0.99939364
      objectReference: {fileID: 0}
    - target: {fileID: 6307016477827788512, guid: 81008e71b4ec24f18927d3ffcf8e6971,
        type: 3}
      propertyPath: m_LocalRotation.x
      value: -0.034820076
      objectReference: {fileID: 0}
    - target: {fileID: 6307016477827788512, guid: 81008e71b4ec24f18927d3ffcf8e6971,
        type: 3}
      propertyPath: m_LocalRotation.y
      value: 5.8744654e-10
      objectReference: {fileID: 0}
    - target: {fileID: 6307016477827788512, guid: 81008e71b4ec24f18927d3ffcf8e6971,
        type: 3}
      propertyPath: m_LocalRotation.z
      value: 0.000000008932709
      objectReference: {fileID: 0}
    - target: {fileID: 6386696217197596064, guid: 81008e71b4ec24f18927d3ffcf8e6971,
        type: 3}
      propertyPath: m_LocalPosition.x
      value: 0.0020284965
      objectReference: {fileID: 0}
    - target: {fileID: 6386696217197596064, guid: 81008e71b4ec24f18927d3ffcf8e6971,
        type: 3}
      propertyPath: m_LocalPosition.y
      value: -0.0024558257
      objectReference: {fileID: 0}
    - target: {fileID: 6386696217197596064, guid: 81008e71b4ec24f18927d3ffcf8e6971,
        type: 3}
      propertyPath: m_LocalPosition.z
      value: 0.0005356033
      objectReference: {fileID: 0}
    - target: {fileID: 6386696217197596064, guid: 81008e71b4ec24f18927d3ffcf8e6971,
        type: 3}
      propertyPath: m_LocalRotation.w
      value: -0.0000001147566
      objectReference: {fileID: 0}
    - target: {fileID: 6386696217197596064, guid: 81008e71b4ec24f18927d3ffcf8e6971,
        type: 3}
      propertyPath: m_LocalRotation.x
      value: 0.00000007091185
      objectReference: {fileID: 0}
    - target: {fileID: 6386696217197596064, guid: 81008e71b4ec24f18927d3ffcf8e6971,
        type: 3}
      propertyPath: m_LocalRotation.y
      value: -0.38268346
      objectReference: {fileID: 0}
    - target: {fileID: 6386696217197596064, guid: 81008e71b4ec24f18927d3ffcf8e6971,
        type: 3}
      propertyPath: m_LocalRotation.z
      value: 0.92387956
      objectReference: {fileID: 0}
    - target: {fileID: 7571089330145333396, guid: 81008e71b4ec24f18927d3ffcf8e6971,
        type: 3}
      propertyPath: m_LocalScale.y
      value: 0.9660738
      objectReference: {fileID: 0}
    - target: {fileID: 7571089330145333396, guid: 81008e71b4ec24f18927d3ffcf8e6971,
        type: 3}
      propertyPath: m_LocalPosition.x
      value: 0
      objectReference: {fileID: 0}
    - target: {fileID: 7571089330145333396, guid: 81008e71b4ec24f18927d3ffcf8e6971,
        type: 3}
      propertyPath: m_LocalPosition.y
      value: 0.00049095927
      objectReference: {fileID: 0}
    - target: {fileID: 7571089330145333396, guid: 81008e71b4ec24f18927d3ffcf8e6971,
        type: 3}
      propertyPath: m_LocalPosition.z
      value: 0.006723025
      objectReference: {fileID: 0}
    - target: {fileID: 7571089330145333396, guid: 81008e71b4ec24f18927d3ffcf8e6971,
        type: 3}
      propertyPath: m_LocalRotation.w
      value: 0.65927655
      objectReference: {fileID: 0}
    - target: {fileID: 7571089330145333396, guid: 81008e71b4ec24f18927d3ffcf8e6971,
        type: 3}
      propertyPath: m_LocalRotation.x
      value: 0.75190055
      objectReference: {fileID: 0}
    - target: {fileID: 7571089330145333396, guid: 81008e71b4ec24f18927d3ffcf8e6971,
        type: 3}
      propertyPath: m_LocalRotation.y
      value: -0.00000007841935
      objectReference: {fileID: 0}
    - target: {fileID: 7571089330145333396, guid: 81008e71b4ec24f18927d3ffcf8e6971,
        type: 3}
      propertyPath: m_LocalRotation.z
      value: -0.00000008980605
      objectReference: {fileID: 0}
    - target: {fileID: 7884845076903494311, guid: 81008e71b4ec24f18927d3ffcf8e6971,
        type: 3}
      propertyPath: m_movementSpeed
      value: 1
      objectReference: {fileID: 0}
    - target: {fileID: 8546805644288908328, guid: 81008e71b4ec24f18927d3ffcf8e6971,
        type: 3}
      propertyPath: m_maxEggTimer
      value: 8
      objectReference: {fileID: 0}
    - target: {fileID: 8986094109058995634, guid: 81008e71b4ec24f18927d3ffcf8e6971,
        type: 3}
      propertyPath: m_LocalPosition.x
      value: -6.694806e-10
      objectReference: {fileID: 0}
    - target: {fileID: 8986094109058995634, guid: 81008e71b4ec24f18927d3ffcf8e6971,
        type: 3}
      propertyPath: m_LocalPosition.y
      value: 0.011145557
      objectReference: {fileID: 0}
    - target: {fileID: 8986094109058995634, guid: 81008e71b4ec24f18927d3ffcf8e6971,
        type: 3}
      propertyPath: m_LocalPosition.z
      value: 0.0024072782
      objectReference: {fileID: 0}
    - target: {fileID: 8986094109058995634, guid: 81008e71b4ec24f18927d3ffcf8e6971,
        type: 3}
      propertyPath: m_LocalRotation.w
      value: 0.90162694
      objectReference: {fileID: 0}
    - target: {fileID: 8986094109058995634, guid: 81008e71b4ec24f18927d3ffcf8e6971,
        type: 3}
      propertyPath: m_LocalRotation.x
      value: -0.4325146
      objectReference: {fileID: 0}
    - target: {fileID: 8986094109058995634, guid: 81008e71b4ec24f18927d3ffcf8e6971,
        type: 3}
      propertyPath: m_LocalRotation.y
      value: 1.4208436e-11
      objectReference: {fileID: 0}
    - target: {fileID: 8986094109058995634, guid: 81008e71b4ec24f18927d3ffcf8e6971,
        type: 3}
      propertyPath: m_LocalRotation.z
      value: 0.000000103224174
      objectReference: {fileID: 0}
    - target: {fileID: 9074716548768980436, guid: 81008e71b4ec24f18927d3ffcf8e6971,
        type: 3}
      propertyPath: m_Materials.Array.data[0]
      value: 
      objectReference: {fileID: 2100000, guid: f65bb90708d7e44b0a3a9dfb3242668c, type: 2}
    - target: {fileID: 9074716548768980436, guid: 81008e71b4ec24f18927d3ffcf8e6971,
        type: 3}
      propertyPath: m_BlendShapeWeights.Array.size
      value: 29
      objectReference: {fileID: 0}
    - target: {fileID: 9074716548768980436, guid: 81008e71b4ec24f18927d3ffcf8e6971,
        type: 3}
      propertyPath: m_BlendShapeWeights.Array.data[1]
      value: 100
      objectReference: {fileID: 0}
    - target: {fileID: 9147125405497385604, guid: 81008e71b4ec24f18927d3ffcf8e6971,
        type: 3}
      propertyPath: m_Materials.Array.data[0]
      value: 
      objectReference: {fileID: 0}
    - target: {fileID: 9163296002199104103, guid: 81008e71b4ec24f18927d3ffcf8e6971,
        type: 3}
      propertyPath: m_LocalScale.y
      value: 0.9999999
      objectReference: {fileID: 0}
    - target: {fileID: 9163296002199104103, guid: 81008e71b4ec24f18927d3ffcf8e6971,
        type: 3}
      propertyPath: m_LocalPosition.x
      value: -0.0000000021580735
      objectReference: {fileID: 0}
    - target: {fileID: 9163296002199104103, guid: 81008e71b4ec24f18927d3ffcf8e6971,
        type: 3}
      propertyPath: m_LocalPosition.y
      value: 0.0012119603
      objectReference: {fileID: 0}
    - target: {fileID: 9163296002199104103, guid: 81008e71b4ec24f18927d3ffcf8e6971,
        type: 3}
      propertyPath: m_LocalPosition.z
      value: -0.0048090387
      objectReference: {fileID: 0}
    - target: {fileID: 9163296002199104103, guid: 81008e71b4ec24f18927d3ffcf8e6971,
        type: 3}
      propertyPath: m_LocalRotation.w
      value: 0.93860614
      objectReference: {fileID: 0}
    - target: {fileID: 9163296002199104103, guid: 81008e71b4ec24f18927d3ffcf8e6971,
        type: 3}
      propertyPath: m_LocalRotation.x
      value: -0.3449907
      objectReference: {fileID: 0}
    - target: {fileID: 9163296002199104103, guid: 81008e71b4ec24f18927d3ffcf8e6971,
        type: 3}
      propertyPath: m_LocalRotation.y
      value: 0.000000111890536
      objectReference: {fileID: 0}
    - target: {fileID: 9163296002199104103, guid: 81008e71b4ec24f18927d3ffcf8e6971,
        type: 3}
      propertyPath: m_LocalRotation.z
      value: 0.000000041126096
      objectReference: {fileID: 0}
    m_RemovedComponents: []
  m_SourcePrefab: {fileID: 100100000, guid: 81008e71b4ec24f18927d3ffcf8e6971, type: 3}
