%YAML 1.1
%TAG !u! tag:unity3d.com,2011:
--- !u!21 &2100000
Material:
  serializedVersion: 6
  m_CorrespondingSourceObject: {fileID: 0}
  m_PrefabInstance: {fileID: 0}
  m_PrefabAsset: {fileID: 0}
  m_Name: ProBuilderDefault
  m_Shader: {fileID: 4800000, guid: 21358abb5a149614f8e0323f828292a6, type: 3}
  m_ShaderKeywords:
  m_LightmapFlags: 5
  m_EnableInstancingVariants: 0
  m_DoubleSidedGI: 0
  m_CustomRenderQueue: -1
  stringTagMap: {}
  disabledShaderPasses: []
  m_SavedProperties:
    serializedVersion: 3
    m_TexEnvs:
    - _MainTex:
        m_Texture: {fileID: 2800000, guid: eb48d25ba27aca449b22f1caeff6b553, type: 3}
        m_Scale: {x: 1, y: 1}
        m_Offset: {x: 0, y: 0}
    m_Floats:
    - _AlphaTestRef: 0.5
    - _Amplitude: 0.33928573
    - _Angle: 0.46428573
    - _BumpScale: 1
    - _Cutoff: 0.27
    - _DetailNormalMapScale: 1
    - _DstBlend: 0
    - _EmissionScaleUI: 0
    - _Gloss: 0.5
    - _Glossiness: 0.48
    - _Lightmapping: 1
    - _Metallic: 0
    - _Mode: 0
    - _OcclusionStrength: 1
    - _Parallax: 0.02
    - _Phase: 1
    - _Size: 25
    - _SrcBlend: 1
    - _UVSec: 1
    - _Wavelength: 0.17857142
    - _ZWrite: 1
    m_Colors:
    - _Color: {r: 1, g: 1, b: 1, a: 1}
    - _Color1: {r: 0.67910445, g: 0.67910445, b: 0.67910445, a: 1}
    - _Color2: {r: 0.14179105, g: 0.14179105, b: 0.14179105, a: 1}
    - _EmissionColor: {r: 0, g: 0, b: 0, a: 0}
    - _EmissionColorUI: {r: 1, g: 1, b: 1, a: 1}
    - _EmissionColorWithMapUI: {r: 1, g: 1, b: 1, a: 1}
    - _Indicator: {r: 1, g: 0, b: 0, a: 1}
    - _SpecularColor: {r: 0.2, g: 0.2, b: 0.2, a: 1}
