%YAML 1.1
%TAG !u! tag:unity3d.com,2011:
--- !u!114 &11400000
MonoBehaviour:
  m_ObjectHideFlags: 0
  m_CorrespondingSourceObject: {fileID: 0}
  m_PrefabInstance: {fileID: 0}
  m_PrefabAsset: {fileID: 0}
  m_GameObject: {fileID: 0}
  m_Enabled: 1
  m_EditorHideFlags: 0
  m_Script: {fileID: 11500000, guid: abb6ec7397ede4891820ff04414f8a50, type: 3}
  m_Name: Level04
  m_EditorClassIdentifier: 
  m_birdSprite: {fileID: 21300000, guid: a3c5c9f589a9840d982188ca29df7575, type: 3}
  m_price: 155
  m_chickenLevel: 14
  m_eggsPerMinute: 4
  m_eggPrice: 2
  m_chickenName: Level 4
