%YAML 1.1
%TAG !u! tag:unity3d.com,2011:
--- !u!114 &11400000
MonoBehaviour:
  m_ObjectHideFlags: 0
  m_CorrespondingSourceObject: {fileID: 0}
  m_PrefabInstance: {fileID: 0}
  m_PrefabAsset: {fileID: 0}
  m_GameObject: {fileID: 0}
  m_Enabled: 1
  m_EditorHideFlags: 0
  m_Script: {fileID: 11500000, guid: abb6ec7397ede4891820ff04414f8a50, type: 3}
  m_Name: Level06
  m_EditorClassIdentifier: 
  m_birdSprite: {fileID: 21300000, guid: 9f4bfdb2b67924d04bf377ee1aa6dee0, type: 3}
  m_price: 967
  m_chickenLevel: 16
  m_eggsPerMinute: 6
  m_eggPrice: 3
  m_chickenName: Level 6
