%YAML 1.1
%TAG !u! tag:unity3d.com,2011:
--- !u!21 &2100000
Material:
  serializedVersion: 6
  m_ObjectHideFlags: 0
  m_CorrespondingSourceObject: {fileID: 0}
  m_PrefabInstance: {fileID: 0}
  m_PrefabAsset: {fileID: 0}
  m_Name: URPBFGrassBall02
  m_Shader: {fileID: 4800000, guid: 2c2cefb6802b6cd429dfbe4041764676, type: 3}
  m_ShaderKeywords: USE_AL USE_RT USE_S USE_SC _RTEFFECT_ON
  m_LightmapFlags: 4
  m_EnableInstancingVariants: 0
  m_DoubleSidedGI: 0
  m_CustomRenderQueue: -1
  stringTagMap: {}
  disabledShaderPasses: []
  m_SavedProperties:
    serializedVersion: 3
    m_TexEnvs:
    - _BumpMap:
        m_Texture: {fileID: 0}
        m_Scale: {x: 1, y: 1}
        m_Offset: {x: 0, y: 0}
    - _DetailAlbedoMap:
        m_Texture: {fileID: 0}
        m_Scale: {x: 1, y: 1}
        m_Offset: {x: 0, y: 0}
    - _DetailMask:
        m_Texture: {fileID: 0}
        m_Scale: {x: 1, y: 1}
        m_Offset: {x: 0, y: 0}
    - _DetailNormalMap:
        m_Texture: {fileID: 0}
        m_Scale: {x: 1, y: 1}
        m_Offset: {x: 0, y: 0}
    - _Distortion:
        m_Texture: {fileID: 2800000, guid: 7dca70292f589e345aef9b57403a46e6, type: 3}
        m_Scale: {x: 1, y: 1}
        m_Offset: {x: 0, y: 0}
    - _EmissionMap:
        m_Texture: {fileID: 0}
        m_Scale: {x: 1, y: 1}
        m_Offset: {x: 0, y: 0}
    - _GrassTex:
        m_Texture: {fileID: 2800000, guid: 27893100cc1f09647b28e099d53741ab, type: 3}
        m_Scale: {x: 1, y: 1}
        m_Offset: {x: 0, y: 0}
    - _GroundTex:
        m_Texture: {fileID: 2800000, guid: 8621597f49aab451e8200de2ce8e5c88, type: 3}
        m_Scale: {x: 1, y: 1}
        m_Offset: {x: 0, y: 0}
    - _MainTex:
        m_Texture: {fileID: 2800000, guid: c8fe1d07ea895448eba4848240bc5345, type: 3}
        m_Scale: {x: 1, y: 1}
        m_Offset: {x: 0, y: 0}
    - _MetallicGlossMap:
        m_Texture: {fileID: 0}
        m_Scale: {x: 1, y: 1}
        m_Offset: {x: 0, y: 0}
    - _NoGrassTex:
        m_Texture: {fileID: 2800000, guid: 7f25c6183047a8a4bb1552aab341ba92, type: 3}
        m_Scale: {x: 1, y: 1}
        m_Offset: {x: 0, y: 0}
    - _Noise:
        m_Texture: {fileID: 2800000, guid: 529789b31389da34d9a7f98c613bf944, type: 3}
        m_Scale: {x: 1, y: 1}
        m_Offset: {x: 0, y: 0}
    - _OcclusionMap:
        m_Texture: {fileID: 0}
        m_Scale: {x: 1, y: 1}
        m_Offset: {x: 0, y: 0}
    - _ParallaxMap:
        m_Texture: {fileID: 0}
        m_Scale: {x: 1, y: 1}
        m_Offset: {x: 0, y: 0}
    - _ShadowMapTexture:
        m_Texture: {fileID: 0}
        m_Scale: {x: 1, y: 1}
        m_Offset: {x: 0, y: 0}
    m_Floats:
    - _BumpScale: 1
    - _Cutoff: 0.5
    - _DetailNormalMapScale: 1
    - _DstBlend: 0
    - _FadeAmplitude: 28
    - _FadeDistance: 16
    - _FadeDistanceEnd: 110
    - _FadeDistanceStart: 48.2
    - _GlossMapScale: 1
    - _Glossiness: 0.5
    - _GlossyReflections: 1
    - _GrassCut: 0
    - _GrassSaturation: 1
    - _GrassShading: 0
    - _GrassThinness: 0.46
    - _GrassThinnessIntersection: 0.01
    - _LightIntensity: 0
    - _Metallic: 0
    - _MinimumNumberStacks: 2
    - _Mode: 0
    - _NoisePower: 1.24
    - _NumberOfStacks: 15
    - _OcclusionStrength: 1
    - _OffsetValue: 0.3
    - _Parallax: 0.02
    - _ProceduralDistance: 5.5
    - _ProceduralStrength: 1.5
    - _RTEffect: 1
    - _RimMax: 0.591
    - _RimMin: 0.11
    - _RimPower: 8
    - _ShadowFuziness: 1
    - _ShadowMax: 0
    - _SmoothnessTextureChannel: 0
    - _SpecularHighlights: 1
    - _SrcBlend: 1
    - _TilingN1: 2.3
    - _TilingN2: 0.05
    - _TilingN3: 1
    - _UVSec: 0
    - _UseAmbientLight: 1
    - _UsePR: 0
    - _UseRT: 1
    - _UseShadow: 1
    - _UseShadowCast: 1
    - _UseTP: 0
    - _UseVR: 0
    - _UseWC: 0
    - _WindForce: 0.3
    - _WindMovement: 0.2
    - _WorldRotation: 0
    - _WorldScale: 10
    - _ZWrite: 1
    - __NumberOfStacks: 17
    m_Colors:
    - _Color: {r: 0.6886792, g: 0.6099659, b: 0.3475881, a: 1}
    - _EmissionColor: {r: 0, g: 0, b: 0, a: 1}
    - _GroundColor: {r: 0.754717, g: 0.63987875, b: 0.3097188, a: 1}
    - _OffsetVector: {r: 0, g: 0, b: 0, a: 0}
    - _PJShadowColor: {r: 0, g: 0, b: 0, a: 1}
    - _ProjectedShadowColor: {r: 1, g: 1, b: 1, a: 1}
    - _RimColor: {r: 0, g: 0, b: 0, a: 1}
    - _SelfShadowColor: {r: 0.754717, g: 0.6530031, b: 0.3097188, a: 1}
