%YAML 1.1
%TAG !u! tag:unity3d.com,2011:
--- !u!21 &2100000
Material:
  serializedVersion: 6
  m_CorrespondingSourceObject: {fileID: 0}
  m_PrefabInstance: {fileID: 0}
  m_PrefabAsset: {fileID: 0}
  m_Name: Grass Purple
  m_Shader: {fileID: 4800000, guid: bc7e0e9a9b0888d4480517e05346ab40, type: 3}
  m_ShaderKeywords:
  m_LightmapFlags: 4
  m_EnableInstancingVariants: 1
  m_DoubleSidedGI: 0
  m_CustomRenderQueue: -1
  stringTagMap: {}
  disabledShaderPasses: []
  m_SavedProperties:
    serializedVersion: 3
    m_TexEnvs:
    - _BendMap:
        m_Texture: {fileID: 0}
        m_Scale: {x: 1, y: 1}
        m_Offset: {x: 0, y: 0}
    - _GrassMap:
        m_Texture: {fileID: 0}
        m_Scale: {x: 1, y: 1}
        m_Offset: {x: 0, y: 0}
    - _Noise:
        m_Texture: {fileID: 2800000, guid: 702e2687ae386e2409bceb939909eb7b, type: 3}
        m_Scale: {x: 1, y: 1}
        m_Offset: {x: 0, y: 0}
    m_Floats:
    - _BendForce: 1
    - _BumpScale: 1
    - _Cutoff: 0.5
    - _Dark: 0.344
    - _DarkBendLimit: 1
    - _DarkBottom: 0.133
    - _DarkTop: 0.356
    - _Density: 10
    - _DetailNormalMapScale: 1
    - _DstBlend: 0
    - _GlobalNoiseDistortion: 0.22
    - _GlobalNoiseScale: 20
    - _GlobalWindAmplitude: 0.2
    - _GlobalWindFreq: 1
    - _GlossMapScale: 1
    - _Glossiness: 0.5
    - _GlossyReflections: 1
    - _ImageColorMulBottom: 0.5
    - _ImageColorMulTop: 1
    - _ImageScale: 15
    - _Metallic: 0
    - _Mode: 0
    - _NoiseAmplitude: 0.25
    - _NoiseFreq: 0.4
    - _NoiseFreqMul: 1.25
    - _OcclusionStrength: 1
    - _Parallax: 0.02
    - _SmoothnessTextureChannel: 0
    - _SpecularHighlights: 1
    - _SrcBlend: 1
    - _UVSec: 0
    - _WindAmplitude: 0.175
    - _WindDistortion: 1.8
    - _WindFreq: 1.25
    - _WindFreqMul: 0.21
    - _WindScale: 50
    - _ZWrite: 1
    m_Colors:
    - _Color: {r: 1, g: 0, b: 0, a: 1}
    - _ColorBottom: {r: 0.44632277, g: 0.15699537, b: 0.5283019, a: 1}
    - _ColorTop: {r: 0.8591977, g: 0.32549015, b: 0.8784314, a: 1}
    - _EmissionColor: {r: 0, g: 0, b: 0, a: 1}
    - _EraseOffset: {r: 15, g: 15, b: 0, a: 0}
    - _GlobalWindDir: {r: 1, g: 1, b: 0, a: 0}
    - _ImageOffset: {r: 15, g: 15, b: 0, a: 0}
    - _WindDir: {r: 0.45, g: 0.075, b: 0, a: 0}
