%YAML 1.1
%TAG !u! tag:unity3d.com,2011:
--- !u!21 &2100000
Material:
  serializedVersion: 6
  m_ObjectHideFlags: 0
  m_CorrespondingSourceObject: {fileID: 0}
  m_PrefabInstance: {fileID: 0}
  m_PrefabAsset: {fileID: 0}
  m_Name: MacGrassBall02
  m_Shader: {fileID: 4800000, guid: bf1b67d8223379749a0a88d47d0a7154, type: 3}
  m_ShaderKeywords: TCP2_REFLECTIONS_FRESNEL TCP2_RIM_LIGHTING_LIGHTMASK TCP2_SHADOW_LIGHT_COLOR
    TCP2_UV_NORMALS_FULL
  m_LightmapFlags: 4
  m_EnableInstancingVariants: 0
  m_DoubleSidedGI: 0
  m_CustomRenderQueue: -1
  stringTagMap: {}
  disabledShaderPasses: []
  m_SavedProperties:
    serializedVersion: 3
    m_TexEnvs:
    - _BaseMap:
        m_Texture: {fileID: 2800000, guid: f01d502f7dd394cb497dd256241b0594, type: 3}
        m_Scale: {x: 1, y: 1}
        m_Offset: {x: 0, y: 0}
    - _BumpMap:
        m_Texture: {fileID: 0}
        m_Scale: {x: 1, y: 1}
        m_Offset: {x: 0, y: 0}
    - _DetailAlbedoMap:
        m_Texture: {fileID: 0}
        m_Scale: {x: 1, y: 1}
        m_Offset: {x: 0, y: 0}
    - _DetailMask:
        m_Texture: {fileID: 0}
        m_Scale: {x: 1, y: 1}
        m_Offset: {x: 0, y: 0}
    - _DetailNormalMap:
        m_Texture: {fileID: 0}
        m_Scale: {x: 1, y: 1}
        m_Offset: {x: 0, y: 0}
    - _Distortion:
        m_Texture: {fileID: 2800000, guid: 7dca70292f589e345aef9b57403a46e6, type: 3}
        m_Scale: {x: 1, y: 1}
        m_Offset: {x: 0, y: 0}
    - _EmissionMap:
        m_Texture: {fileID: 0}
        m_Scale: {x: 1, y: 1}
        m_Offset: {x: 0, y: 0}
    - _GrassTex:
        m_Texture: {fileID: 2800000, guid: 27893100cc1f09647b28e099d53741ab, type: 3}
        m_Scale: {x: 1, y: 1}
        m_Offset: {x: 0, y: 0}
    - _GroundTex:
        m_Texture: {fileID: 2800000, guid: 85ea986c7f0510e498b3ddeeaba62ead, type: 3}
        m_Scale: {x: 1, y: 1}
        m_Offset: {x: 0, y: 0}
    - _MainTex:
        m_Texture: {fileID: 2800000, guid: c8fe1d07ea895448eba4848240bc5345, type: 3}
        m_Scale: {x: 1, y: 1}
        m_Offset: {x: 0, y: 0}
    - _MatCapMask:
        m_Texture: {fileID: 0}
        m_Scale: {x: 1, y: 1}
        m_Offset: {x: 0, y: 0}
    - _MatCapTex:
        m_Texture: {fileID: 0}
        m_Scale: {x: 1, y: 1}
        m_Offset: {x: 0, y: 0}
    - _MetallicGlossMap:
        m_Texture: {fileID: 0}
        m_Scale: {x: 1, y: 1}
        m_Offset: {x: 0, y: 0}
    - _NoGrassTex:
        m_Texture: {fileID: 2800000, guid: 312b3c84e725b884fbf388d04107c2d0, type: 3}
        m_Scale: {x: 1, y: 1}
        m_Offset: {x: 0, y: 0}
    - _Noise:
        m_Texture: {fileID: 2800000, guid: 529789b31389da34d9a7f98c613bf944, type: 3}
        m_Scale: {x: 1, y: 1}
        m_Offset: {x: 0, y: 0}
    - _OcclusionMap:
        m_Texture: {fileID: 0}
        m_Scale: {x: 1, y: 1}
        m_Offset: {x: 0, y: 0}
    - _ParallaxMap:
        m_Texture: {fileID: 0}
        m_Scale: {x: 1, y: 1}
        m_Offset: {x: 0, y: 0}
    - _Ramp:
        m_Texture: {fileID: 0}
        m_Scale: {x: 1, y: 1}
        m_Offset: {x: 0, y: 0}
    - _ReflectionTex:
        m_Texture: {fileID: 0}
        m_Scale: {x: 1, y: 1}
        m_Offset: {x: 0, y: 0}
    - _ShadowBaseMap:
        m_Texture: {fileID: 0}
        m_Scale: {x: 1, y: 1}
        m_Offset: {x: 0, y: 0}
    - _SpecGlossMap:
        m_Texture: {fileID: 0}
        m_Scale: {x: 1, y: 1}
        m_Offset: {x: 0, y: 0}
    m_Floats:
    - _BumpScale: 1
    - _Cull: 2
    - _Cutoff: 0.5
    - _DetailNormalMapScale: 1
    - _DirectIntensityOutline: 1
    - _DstBlend: 0
    - _EmissionChannel: 4
    - _FadeDistanceEnd: 50
    - _FadeDistanceStart: 40
    - _FresnelMax: 1.5
    - _FresnelMin: 0
    - _GlossMapScale: 1
    - _Glossiness: 0.5
    - _GlossyReflections: 1
    - _GrassCut: 0
    - _GrassSaturation: 1.08
    - _GrassShading: 0
    - _GrassThinness: 1.08
    - _GrassThinnessIntersection: 0.01
    - _IndirectIntensity: 1
    - _IndirectIntensityOutline: 0
    - _LightIntensity: 1
    - _MatCapMaskChannel: 0
    - _MatCapType: 0
    - _Metallic: 0
    - _MinimumNumberStacks: 2
    - _Mode: 0
    - _NoisePower: 3
    - _NormalsSource: 0
    - _NormalsUVType: 0
    - _NumberOfStacks: 12
    - _OcclusionChannel: 0
    - _OcclusionStrength: 1
    - _OffsetValue: 1
    - _OutlineLightingType: 0
    - _OutlineLightingTypeURP: 0
    - _OutlineMaxWidth: 1
    - _OutlineMinWidth: 1
    - _OutlinePixelSizeType: 0
    - _OutlineTextureLOD: 5
    - _OutlineTextureType: 0
    - _OutlineWidth: 1
    - _Parallax: 0.02
    - _ProceduralDistance: 5.5
    - _ProceduralStrength: 1.5
    - _RampBands: 4
    - _RampBandsSmoothing: 0.1
    - _RampOffset: 0
    - _RampScale: 1
    - _RampSmoothing: 0.1
    - _RampThreshold: 0.75
    - _RampType: 0
    - _ReceiveShadowsOff: 1
    - _ReflectionMapType: 0
    - _ReflectionSmoothness: 0.5
    - _RenderingMode: 0
    - _RimMax: 0.62
    - _RimMin: 0.241
    - _RimPower: 3.14
    - _ShadowColorLightAtten: 1
    - _SingleIndirectColor: 0
    - _SmoothnessTextureChannel: 0
    - _SpecularHighlights: 1
    - _SpecularMapType: 0
    - _SpecularRoughness: 0.5
    - _SpecularToonSize: 0.25
    - _SpecularToonSmoothness: 0.05
    - _SpecularType: 0
    - _SrcBlend: 1
    - _TilingN1: 3
    - _TilingN2: 1.91
    - _TilingN3: 0.5
    - _UVSec: 0
    - _UseAlphaTest: 0
    - _UseAmbientLight: 0
    - _UseEmission: 0
    - _UseFresnelReflections: 1
    - _UseMatCap: 0
    - _UseMatCapMask: 0
    - _UseMobileMode: 0
    - _UseNormalMap: 0
    - _UseOcclusion: 0
    - _UseOutline: 0
    - _UsePR: 0
    - _UseRT: 0
    - _UseReflections: 0
    - _UseRim: 0
    - _UseRimLightMask: 1
    - _UseShadow: 0
    - _UseShadowCast: 0
    - _UseShadowTexture: 0
    - _UseSpecular: 0
    - _UseTP: 0
    - _UseVR: 0
    - _UseWC: 0
    - _WindForce: 0.1
    - _WindMovement: 1
    - _WorldRotation: 0
    - _WorldScale: 10
    - _ZWrite: 1
    m_Colors:
    - _BaseColor: {r: 1, g: 1, b: 1, a: 1}
    - _Color: {r: 0.6886792, g: 0.5670435, b: 0.18516374, a: 1}
    - _EmissionColor: {r: 0, g: 0, b: 0, a: 1}
    - _GroundColor: {r: 1, g: 0.8695216, b: 0.48584908, a: 1}
    - _HColor: {r: 1, g: 1, b: 1, a: 1}
    - _MatCapColor: {r: 1, g: 1, b: 1, a: 1}
    - _OffsetVector: {r: 0, g: 0, b: 0, a: 1}
    - _OutlineColor: {r: 0, g: 0, b: 0, a: 1}
    - _ProjectedShadowColor: {r: 0.8301887, g: 0.59851485, b: 0.027411906, a: 1}
    - _ReflectionColor: {r: 1, g: 1, b: 1, a: 1}
    - _RimColor: {r: 0.14, g: 0.18, b: 0.09, a: 1}
    - _SColor: {r: 0.2, g: 0.2, b: 0.2, a: 1}
    - _SelfShadowColor: {r: 0.5754717, g: 0.46038178, b: 0.17101282, a: 1}
    - _SpecularColor: {r: 0.75, g: 0.75, b: 0.75, a: 1}
