%YAML 1.1
%TAG !u! tag:unity3d.com,2011:
--- !u!136 &3673167867502255120
CapsuleCollider:
  m_ObjectHideFlags: 0
  m_CorrespondingSourceObject: {fileID: 0}
  m_PrefabInstance: {fileID: 0}
  m_PrefabAsset: {fileID: 0}
  m_GameObject: {fileID: 5558993133772215300}
  m_Material: {fileID: 0}
  m_IsTrigger: 0
  m_Enabled: 1
  m_Radius: 0.6210804
  m_Height: 1.6816385
  m_Direction: 1
  m_Center: {x: 0, y: 1.0942088, z: 0.022422314}
--- !u!1001 &4748178414850615637
PrefabInstance:
  m_ObjectHideFlags: 0
  serializedVersion: 2
  m_Modification:
    m_TransformParent: {fileID: 0}
    m_Modifications:
    - target: {fileID: -8679921383154817045, guid: d12e76b290508f540a3d226b6f7bc688,
        type: 3}
      propertyPath: m_RootOrder
      value: 0
      objectReference: {fileID: 0}
    - target: {fileID: -8679921383154817045, guid: d12e76b290508f540a3d226b6f7bc688,
        type: 3}
      propertyPath: m_LocalPosition.x
      value: 0
      objectReference: {fileID: 0}
    - target: {fileID: -8679921383154817045, guid: d12e76b290508f540a3d226b6f7bc688,
        type: 3}
      propertyPath: m_LocalPosition.y
      value: 0
      objectReference: {fileID: 0}
    - target: {fileID: -8679921383154817045, guid: d12e76b290508f540a3d226b6f7bc688,
        type: 3}
      propertyPath: m_LocalPosition.z
      value: 0
      objectReference: {fileID: 0}
    - target: {fileID: -8679921383154817045, guid: d12e76b290508f540a3d226b6f7bc688,
        type: 3}
      propertyPath: m_LocalRotation.w
      value: 1
      objectReference: {fileID: 0}
    - target: {fileID: -8679921383154817045, guid: d12e76b290508f540a3d226b6f7bc688,
        type: 3}
      propertyPath: m_LocalRotation.x
      value: -0
      objectReference: {fileID: 0}
    - target: {fileID: -8679921383154817045, guid: d12e76b290508f540a3d226b6f7bc688,
        type: 3}
      propertyPath: m_LocalRotation.y
      value: -0
      objectReference: {fileID: 0}
    - target: {fileID: -8679921383154817045, guid: d12e76b290508f540a3d226b6f7bc688,
        type: 3}
      propertyPath: m_LocalRotation.z
      value: -0
      objectReference: {fileID: 0}
    - target: {fileID: -8679921383154817045, guid: d12e76b290508f540a3d226b6f7bc688,
        type: 3}
      propertyPath: m_LocalEulerAnglesHint.x
      value: 0
      objectReference: {fileID: 0}
    - target: {fileID: -8679921383154817045, guid: d12e76b290508f540a3d226b6f7bc688,
        type: 3}
      propertyPath: m_LocalEulerAnglesHint.y
      value: 0
      objectReference: {fileID: 0}
    - target: {fileID: -8679921383154817045, guid: d12e76b290508f540a3d226b6f7bc688,
        type: 3}
      propertyPath: m_LocalEulerAnglesHint.z
      value: 0
      objectReference: {fileID: 0}
    - target: {fileID: 919132149155446097, guid: d12e76b290508f540a3d226b6f7bc688,
        type: 3}
      propertyPath: m_Name
      value: Dove_LOD0
      objectReference: {fileID: 0}
    - target: {fileID: 5866666021909216657, guid: d12e76b290508f540a3d226b6f7bc688,
        type: 3}
      propertyPath: m_Controller
      value: 
      objectReference: {fileID: 9100000, guid: b36dd176e6264c2448064072afbd86d3, type: 2}
    m_RemovedComponents: []
  m_SourcePrefab: {fileID: 100100000, guid: d12e76b290508f540a3d226b6f7bc688, type: 3}
--- !u!1 &5558993133772215300 stripped
GameObject:
  m_CorrespondingSourceObject: {fileID: 919132149155446097, guid: d12e76b290508f540a3d226b6f7bc688,
    type: 3}
  m_PrefabInstance: {fileID: 4748178414850615637}
  m_PrefabAsset: {fileID: 0}
