%YAML 1.1
%TAG !u! tag:unity3d.com,2011:
--- !u!136 &-5173428971671418560
CapsuleCollider:
  m_ObjectHideFlags: 0
  m_CorrespondingSourceObject: {fileID: 0}
  m_PrefabInstance: {fileID: 0}
  m_PrefabAsset: {fileID: 0}
  m_GameObject: {fileID: 4334354846115108157}
  m_Material: {fileID: 0}
  m_IsTrigger: 0
  m_Enabled: 1
  m_Radius: 0.6210804
  m_Height: 1.6816385
  m_Direction: 1
  m_Center: {x: 0, y: 1.0942088, z: 0.022422314}
--- !u!1001 &3524015122657978476
PrefabInstance:
  m_ObjectHideFlags: 0
  serializedVersion: 2
  m_Modification:
    m_TransformParent: {fileID: 0}
    m_Modifications:
    - target: {fileID: -8679921383154817045, guid: a8877c1bd4ada3c4ba4912185cd41bbe,
        type: 3}
      propertyPath: m_RootOrder
      value: 0
      objectReference: {fileID: 0}
    - target: {fileID: -8679921383154817045, guid: a8877c1bd4ada3c4ba4912185cd41bbe,
        type: 3}
      propertyPath: m_LocalPosition.x
      value: 0
      objectReference: {fileID: 0}
    - target: {fileID: -8679921383154817045, guid: a8877c1bd4ada3c4ba4912185cd41bbe,
        type: 3}
      propertyPath: m_LocalPosition.y
      value: 0
      objectReference: {fileID: 0}
    - target: {fileID: -8679921383154817045, guid: a8877c1bd4ada3c4ba4912185cd41bbe,
        type: 3}
      propertyPath: m_LocalPosition.z
      value: 0
      objectReference: {fileID: 0}
    - target: {fileID: -8679921383154817045, guid: a8877c1bd4ada3c4ba4912185cd41bbe,
        type: 3}
      propertyPath: m_LocalRotation.w
      value: 1
      objectReference: {fileID: 0}
    - target: {fileID: -8679921383154817045, guid: a8877c1bd4ada3c4ba4912185cd41bbe,
        type: 3}
      propertyPath: m_LocalRotation.x
      value: -0
      objectReference: {fileID: 0}
    - target: {fileID: -8679921383154817045, guid: a8877c1bd4ada3c4ba4912185cd41bbe,
        type: 3}
      propertyPath: m_LocalRotation.y
      value: -0
      objectReference: {fileID: 0}
    - target: {fileID: -8679921383154817045, guid: a8877c1bd4ada3c4ba4912185cd41bbe,
        type: 3}
      propertyPath: m_LocalRotation.z
      value: -0
      objectReference: {fileID: 0}
    - target: {fileID: -8679921383154817045, guid: a8877c1bd4ada3c4ba4912185cd41bbe,
        type: 3}
      propertyPath: m_LocalEulerAnglesHint.x
      value: 0
      objectReference: {fileID: 0}
    - target: {fileID: -8679921383154817045, guid: a8877c1bd4ada3c4ba4912185cd41bbe,
        type: 3}
      propertyPath: m_LocalEulerAnglesHint.y
      value: 0
      objectReference: {fileID: 0}
    - target: {fileID: -8679921383154817045, guid: a8877c1bd4ada3c4ba4912185cd41bbe,
        type: 3}
      propertyPath: m_LocalEulerAnglesHint.z
      value: 0
      objectReference: {fileID: 0}
    - target: {fileID: 919132149155446097, guid: a8877c1bd4ada3c4ba4912185cd41bbe,
        type: 3}
      propertyPath: m_Name
      value: Dove_LOD3
      objectReference: {fileID: 0}
    - target: {fileID: 5866666021909216657, guid: a8877c1bd4ada3c4ba4912185cd41bbe,
        type: 3}
      propertyPath: m_Controller
      value: 
      objectReference: {fileID: 9100000, guid: b36dd176e6264c2448064072afbd86d3, type: 2}
    m_RemovedComponents: []
  m_SourcePrefab: {fileID: 100100000, guid: a8877c1bd4ada3c4ba4912185cd41bbe, type: 3}
--- !u!1 &4334354846115108157 stripped
GameObject:
  m_CorrespondingSourceObject: {fileID: 919132149155446097, guid: a8877c1bd4ada3c4ba4912185cd41bbe,
    type: 3}
  m_PrefabInstance: {fileID: 3524015122657978476}
  m_PrefabAsset: {fileID: 0}
