%YAML 1.1
%TAG !u! tag:unity3d.com,2011:
--- !u!136 &415699402548746192
CapsuleCollider:
  m_ObjectHideFlags: 0
  m_CorrespondingSourceObject: {fileID: 0}
  m_PrefabInstance: {fileID: 0}
  m_PrefabAsset: {fileID: 0}
  m_GameObject: {fileID: 382853146584710791}
  m_Material: {fileID: 0}
  m_IsTrigger: 0
  m_Enabled: 1
  m_Radius: 0.6031426
  m_Height: 1.439477
  m_Direction: 1
  m_Center: {x: 0, y: 1.017973, z: 0.07623589}
--- !u!1001 &689406131925107670
PrefabInstance:
  m_ObjectHideFlags: 0
  serializedVersion: 2
  m_Modification:
    m_TransformParent: {fileID: 0}
    m_Modifications:
    - target: {fileID: -8679921383154817045, guid: 1ddb28cb4be6fff44846d75a393f44c6,
        type: 3}
      propertyPath: m_RootOrder
      value: 0
      objectReference: {fileID: 0}
    - target: {fileID: -8679921383154817045, guid: 1ddb28cb4be6fff44846d75a393f44c6,
        type: 3}
      propertyPath: m_LocalPosition.x
      value: 0
      objectReference: {fileID: 0}
    - target: {fileID: -8679921383154817045, guid: 1ddb28cb4be6fff44846d75a393f44c6,
        type: 3}
      propertyPath: m_LocalPosition.y
      value: 0
      objectReference: {fileID: 0}
    - target: {fileID: -8679921383154817045, guid: 1ddb28cb4be6fff44846d75a393f44c6,
        type: 3}
      propertyPath: m_LocalPosition.z
      value: 0
      objectReference: {fileID: 0}
    - target: {fileID: -8679921383154817045, guid: 1ddb28cb4be6fff44846d75a393f44c6,
        type: 3}
      propertyPath: m_LocalRotation.w
      value: 1
      objectReference: {fileID: 0}
    - target: {fileID: -8679921383154817045, guid: 1ddb28cb4be6fff44846d75a393f44c6,
        type: 3}
      propertyPath: m_LocalRotation.x
      value: -0
      objectReference: {fileID: 0}
    - target: {fileID: -8679921383154817045, guid: 1ddb28cb4be6fff44846d75a393f44c6,
        type: 3}
      propertyPath: m_LocalRotation.y
      value: -0
      objectReference: {fileID: 0}
    - target: {fileID: -8679921383154817045, guid: 1ddb28cb4be6fff44846d75a393f44c6,
        type: 3}
      propertyPath: m_LocalRotation.z
      value: -0
      objectReference: {fileID: 0}
    - target: {fileID: -8679921383154817045, guid: 1ddb28cb4be6fff44846d75a393f44c6,
        type: 3}
      propertyPath: m_LocalEulerAnglesHint.x
      value: 0
      objectReference: {fileID: 0}
    - target: {fileID: -8679921383154817045, guid: 1ddb28cb4be6fff44846d75a393f44c6,
        type: 3}
      propertyPath: m_LocalEulerAnglesHint.y
      value: 0
      objectReference: {fileID: 0}
    - target: {fileID: -8679921383154817045, guid: 1ddb28cb4be6fff44846d75a393f44c6,
        type: 3}
      propertyPath: m_LocalEulerAnglesHint.z
      value: 0
      objectReference: {fileID: 0}
    - target: {fileID: 919132149155446097, guid: 1ddb28cb4be6fff44846d75a393f44c6,
        type: 3}
      propertyPath: m_Name
      value: Duck_LOD2
      objectReference: {fileID: 0}
    - target: {fileID: 5866666021909216657, guid: 1ddb28cb4be6fff44846d75a393f44c6,
        type: 3}
      propertyPath: m_Controller
      value: 
      objectReference: {fileID: 9100000, guid: 54acd92ad1f32d8499b27ebcf8941b48, type: 2}
    m_RemovedComponents: []
  m_SourcePrefab: {fileID: 100100000, guid: 1ddb28cb4be6fff44846d75a393f44c6, type: 3}
--- !u!1 &382853146584710791 stripped
GameObject:
  m_CorrespondingSourceObject: {fileID: 919132149155446097, guid: 1ddb28cb4be6fff44846d75a393f44c6,
    type: 3}
  m_PrefabInstance: {fileID: 689406131925107670}
  m_PrefabAsset: {fileID: 0}
