%YAML 1.1
%TAG !u! tag:unity3d.com,2011:
--- !u!136 &7234621292003695101
CapsuleCollider:
  m_ObjectHideFlags: 0
  m_CorrespondingSourceObject: {fileID: 0}
  m_PrefabInstance: {fileID: 0}
  m_PrefabAsset: {fileID: 0}
  m_GameObject: {fileID: 7763421696036608207}
  m_Material: {fileID: 0}
  m_IsTrigger: 0
  m_Enabled: 1
  m_Radius: 0.93464005
  m_Height: 2.2657952
  m_Direction: 1
  m_Center: {x: 0, y: 1.7919376, z: 0.26688433}
--- !u!1001 &7456939775361000862
PrefabInstance:
  m_ObjectHideFlags: 0
  serializedVersion: 2
  m_Modification:
    m_TransformParent: {fileID: 0}
    m_Modifications:
    - target: {fileID: -8679921383154817045, guid: 98a415096c636794ba6d57d4d3d6c9c9,
        type: 3}
      propertyPath: m_RootOrder
      value: 0
      objectReference: {fileID: 0}
    - target: {fileID: -8679921383154817045, guid: 98a415096c636794ba6d57d4d3d6c9c9,
        type: 3}
      propertyPath: m_LocalPosition.x
      value: 0
      objectReference: {fileID: 0}
    - target: {fileID: -8679921383154817045, guid: 98a415096c636794ba6d57d4d3d6c9c9,
        type: 3}
      propertyPath: m_LocalPosition.y
      value: 0
      objectReference: {fileID: 0}
    - target: {fileID: -8679921383154817045, guid: 98a415096c636794ba6d57d4d3d6c9c9,
        type: 3}
      propertyPath: m_LocalPosition.z
      value: 0
      objectReference: {fileID: 0}
    - target: {fileID: -8679921383154817045, guid: 98a415096c636794ba6d57d4d3d6c9c9,
        type: 3}
      propertyPath: m_LocalRotation.w
      value: 1
      objectReference: {fileID: 0}
    - target: {fileID: -8679921383154817045, guid: 98a415096c636794ba6d57d4d3d6c9c9,
        type: 3}
      propertyPath: m_LocalRotation.x
      value: -0
      objectReference: {fileID: 0}
    - target: {fileID: -8679921383154817045, guid: 98a415096c636794ba6d57d4d3d6c9c9,
        type: 3}
      propertyPath: m_LocalRotation.y
      value: -0
      objectReference: {fileID: 0}
    - target: {fileID: -8679921383154817045, guid: 98a415096c636794ba6d57d4d3d6c9c9,
        type: 3}
      propertyPath: m_LocalRotation.z
      value: -0
      objectReference: {fileID: 0}
    - target: {fileID: -8679921383154817045, guid: 98a415096c636794ba6d57d4d3d6c9c9,
        type: 3}
      propertyPath: m_LocalEulerAnglesHint.x
      value: 0
      objectReference: {fileID: 0}
    - target: {fileID: -8679921383154817045, guid: 98a415096c636794ba6d57d4d3d6c9c9,
        type: 3}
      propertyPath: m_LocalEulerAnglesHint.y
      value: 0
      objectReference: {fileID: 0}
    - target: {fileID: -8679921383154817045, guid: 98a415096c636794ba6d57d4d3d6c9c9,
        type: 3}
      propertyPath: m_LocalEulerAnglesHint.z
      value: 0
      objectReference: {fileID: 0}
    - target: {fileID: 919132149155446097, guid: 98a415096c636794ba6d57d4d3d6c9c9,
        type: 3}
      propertyPath: m_Name
      value: Emu_LOD1
      objectReference: {fileID: 0}
    - target: {fileID: 5866666021909216657, guid: 98a415096c636794ba6d57d4d3d6c9c9,
        type: 3}
      propertyPath: m_Controller
      value: 
      objectReference: {fileID: 9100000, guid: 5c0b79bc14778ca4880de52ac6daa2a1, type: 2}
    m_RemovedComponents: []
  m_SourcePrefab: {fileID: 100100000, guid: 98a415096c636794ba6d57d4d3d6c9c9, type: 3}
--- !u!1 &7763421696036608207 stripped
GameObject:
  m_CorrespondingSourceObject: {fileID: 919132149155446097, guid: 98a415096c636794ba6d57d4d3d6c9c9,
    type: 3}
  m_PrefabInstance: {fileID: 7456939775361000862}
  m_PrefabAsset: {fileID: 0}
