%YAML 1.1
%TAG !u! tag:unity3d.com,2011:
--- !u!136 &7640444610278867828
CapsuleCollider:
  m_ObjectHideFlags: 0
  m_CorrespondingSourceObject: {fileID: 0}
  m_PrefabInstance: {fileID: 0}
  m_PrefabAsset: {fileID: 0}
  m_GameObject: {fileID: 5391131867168366405}
  m_Material: {fileID: 0}
  m_IsTrigger: 0
  m_Enabled: 1
  m_Radius: 0.74564594
  m_Height: 2.3156638
  m_Direction: 1
  m_Center: {x: 0, y: 2.1566885, z: 0.27062684}
--- !u!1001 &5048618810728702484
PrefabInstance:
  m_ObjectHideFlags: 0
  serializedVersion: 2
  m_Modification:
    m_TransformParent: {fileID: 0}
    m_Modifications:
    - target: {fileID: -8679921383154817045, guid: ce20eda141fae1f4abf76082eb906afe,
        type: 3}
      propertyPath: m_RootOrder
      value: 0
      objectReference: {fileID: 0}
    - target: {fileID: -8679921383154817045, guid: ce20eda141fae1f4abf76082eb906afe,
        type: 3}
      propertyPath: m_LocalPosition.x
      value: 0
      objectReference: {fileID: 0}
    - target: {fileID: -8679921383154817045, guid: ce20eda141fae1f4abf76082eb906afe,
        type: 3}
      propertyPath: m_LocalPosition.y
      value: 0
      objectReference: {fileID: 0}
    - target: {fileID: -8679921383154817045, guid: ce20eda141fae1f4abf76082eb906afe,
        type: 3}
      propertyPath: m_LocalPosition.z
      value: 0
      objectReference: {fileID: 0}
    - target: {fileID: -8679921383154817045, guid: ce20eda141fae1f4abf76082eb906afe,
        type: 3}
      propertyPath: m_LocalRotation.w
      value: 1
      objectReference: {fileID: 0}
    - target: {fileID: -8679921383154817045, guid: ce20eda141fae1f4abf76082eb906afe,
        type: 3}
      propertyPath: m_LocalRotation.x
      value: -0
      objectReference: {fileID: 0}
    - target: {fileID: -8679921383154817045, guid: ce20eda141fae1f4abf76082eb906afe,
        type: 3}
      propertyPath: m_LocalRotation.y
      value: -0
      objectReference: {fileID: 0}
    - target: {fileID: -8679921383154817045, guid: ce20eda141fae1f4abf76082eb906afe,
        type: 3}
      propertyPath: m_LocalRotation.z
      value: -0
      objectReference: {fileID: 0}
    - target: {fileID: -8679921383154817045, guid: ce20eda141fae1f4abf76082eb906afe,
        type: 3}
      propertyPath: m_LocalEulerAnglesHint.x
      value: 0
      objectReference: {fileID: 0}
    - target: {fileID: -8679921383154817045, guid: ce20eda141fae1f4abf76082eb906afe,
        type: 3}
      propertyPath: m_LocalEulerAnglesHint.y
      value: 0
      objectReference: {fileID: 0}
    - target: {fileID: -8679921383154817045, guid: ce20eda141fae1f4abf76082eb906afe,
        type: 3}
      propertyPath: m_LocalEulerAnglesHint.z
      value: 0
      objectReference: {fileID: 0}
    - target: {fileID: 919132149155446097, guid: ce20eda141fae1f4abf76082eb906afe,
        type: 3}
      propertyPath: m_Name
      value: Flamingo_LOD2
      objectReference: {fileID: 0}
    - target: {fileID: 5866666021909216657, guid: ce20eda141fae1f4abf76082eb906afe,
        type: 3}
      propertyPath: m_Controller
      value: 
      objectReference: {fileID: 9100000, guid: db64284af23fbdc4ab6cbdd9f28a38ed, type: 2}
    m_RemovedComponents: []
  m_SourcePrefab: {fileID: 100100000, guid: ce20eda141fae1f4abf76082eb906afe, type: 3}
--- !u!1 &5391131867168366405 stripped
GameObject:
  m_CorrespondingSourceObject: {fileID: 919132149155446097, guid: ce20eda141fae1f4abf76082eb906afe,
    type: 3}
  m_PrefabInstance: {fileID: 5048618810728702484}
  m_PrefabAsset: {fileID: 0}
