%YAML 1.1
%TAG !u! tag:unity3d.com,2011:
--- !u!136 &961204282713587532
CapsuleCollider:
  m_ObjectHideFlags: 0
  m_CorrespondingSourceObject: {fileID: 0}
  m_PrefabInstance: {fileID: 0}
  m_PrefabAsset: {fileID: 0}
  m_GameObject: {fileID: 5678609839970451161}
  m_Material: {fileID: 0}
  m_IsTrigger: 0
  m_Enabled: 1
  m_Radius: 0.387586
  m_Height: 1.4246764
  m_Direction: 2
  m_Center: {x: 0, y: 0.46214783, z: -0.029144406}
--- !u!1001 &4760041206765110152
PrefabInstance:
  m_ObjectHideFlags: 0
  serializedVersion: 2
  m_Modification:
    m_TransformParent: {fileID: 0}
    m_Modifications:
    - target: {fileID: -8679921383154817045, guid: dc24f62d9cc1f804bb3d96ffee293c07,
        type: 3}
      propertyPath: m_RootOrder
      value: 0
      objectReference: {fileID: 0}
    - target: {fileID: -8679921383154817045, guid: dc24f62d9cc1f804bb3d96ffee293c07,
        type: 3}
      propertyPath: m_LocalPosition.x
      value: 0
      objectReference: {fileID: 0}
    - target: {fileID: -8679921383154817045, guid: dc24f62d9cc1f804bb3d96ffee293c07,
        type: 3}
      propertyPath: m_LocalPosition.y
      value: 0
      objectReference: {fileID: 0}
    - target: {fileID: -8679921383154817045, guid: dc24f62d9cc1f804bb3d96ffee293c07,
        type: 3}
      propertyPath: m_LocalPosition.z
      value: 0
      objectReference: {fileID: 0}
    - target: {fileID: -8679921383154817045, guid: dc24f62d9cc1f804bb3d96ffee293c07,
        type: 3}
      propertyPath: m_LocalRotation.w
      value: 1
      objectReference: {fileID: 0}
    - target: {fileID: -8679921383154817045, guid: dc24f62d9cc1f804bb3d96ffee293c07,
        type: 3}
      propertyPath: m_LocalRotation.x
      value: -0
      objectReference: {fileID: 0}
    - target: {fileID: -8679921383154817045, guid: dc24f62d9cc1f804bb3d96ffee293c07,
        type: 3}
      propertyPath: m_LocalRotation.y
      value: -0
      objectReference: {fileID: 0}
    - target: {fileID: -8679921383154817045, guid: dc24f62d9cc1f804bb3d96ffee293c07,
        type: 3}
      propertyPath: m_LocalRotation.z
      value: -0
      objectReference: {fileID: 0}
    - target: {fileID: -8679921383154817045, guid: dc24f62d9cc1f804bb3d96ffee293c07,
        type: 3}
      propertyPath: m_LocalEulerAnglesHint.x
      value: 0
      objectReference: {fileID: 0}
    - target: {fileID: -8679921383154817045, guid: dc24f62d9cc1f804bb3d96ffee293c07,
        type: 3}
      propertyPath: m_LocalEulerAnglesHint.y
      value: 0
      objectReference: {fileID: 0}
    - target: {fileID: -8679921383154817045, guid: dc24f62d9cc1f804bb3d96ffee293c07,
        type: 3}
      propertyPath: m_LocalEulerAnglesHint.z
      value: 0
      objectReference: {fileID: 0}
    - target: {fileID: 919132149155446097, guid: dc24f62d9cc1f804bb3d96ffee293c07,
        type: 3}
      propertyPath: m_Name
      value: FlyingFox_LOD1
      objectReference: {fileID: 0}
    - target: {fileID: 5866666021909216657, guid: dc24f62d9cc1f804bb3d96ffee293c07,
        type: 3}
      propertyPath: m_Controller
      value: 
      objectReference: {fileID: 9100000, guid: bbf4a04ad3efbc742848781deab3e666, type: 2}
    m_RemovedComponents: []
  m_SourcePrefab: {fileID: 100100000, guid: dc24f62d9cc1f804bb3d96ffee293c07, type: 3}
--- !u!1 &5678609839970451161 stripped
GameObject:
  m_CorrespondingSourceObject: {fileID: 919132149155446097, guid: dc24f62d9cc1f804bb3d96ffee293c07,
    type: 3}
  m_PrefabInstance: {fileID: 4760041206765110152}
  m_PrefabAsset: {fileID: 0}
