%YAML 1.1
%TAG !u! tag:unity3d.com,2011:
--- !u!136 &8103411511348548614
CapsuleCollider:
  m_ObjectHideFlags: 0
  m_CorrespondingSourceObject: {fileID: 0}
  m_PrefabInstance: {fileID: 0}
  m_PrefabAsset: {fileID: 0}
  m_GameObject: {fileID: 4016888369175928677}
  m_Material: {fileID: 0}
  m_IsTrigger: 0
  m_Enabled: 1
  m_Radius: 0.7165015
  m_Height: 1.9326222
  m_Direction: 1
  m_Center: {x: 0, y: 1.2240664, z: 0.016654015}
--- !u!1001 &4287342602143670836
PrefabInstance:
  m_ObjectHideFlags: 0
  serializedVersion: 2
  m_Modification:
    m_TransformParent: {fileID: 0}
    m_Modifications:
    - target: {fileID: -8679921383154817045, guid: 596e2f87c520b75449550492776ba7be,
        type: 3}
      propertyPath: m_RootOrder
      value: 0
      objectReference: {fileID: 0}
    - target: {fileID: -8679921383154817045, guid: 596e2f87c520b75449550492776ba7be,
        type: 3}
      propertyPath: m_LocalPosition.x
      value: 0
      objectReference: {fileID: 0}
    - target: {fileID: -8679921383154817045, guid: 596e2f87c520b75449550492776ba7be,
        type: 3}
      propertyPath: m_LocalPosition.y
      value: 0
      objectReference: {fileID: 0}
    - target: {fileID: -8679921383154817045, guid: 596e2f87c520b75449550492776ba7be,
        type: 3}
      propertyPath: m_LocalPosition.z
      value: 0
      objectReference: {fileID: 0}
    - target: {fileID: -8679921383154817045, guid: 596e2f87c520b75449550492776ba7be,
        type: 3}
      propertyPath: m_LocalRotation.w
      value: 1
      objectReference: {fileID: 0}
    - target: {fileID: -8679921383154817045, guid: 596e2f87c520b75449550492776ba7be,
        type: 3}
      propertyPath: m_LocalRotation.x
      value: -0
      objectReference: {fileID: 0}
    - target: {fileID: -8679921383154817045, guid: 596e2f87c520b75449550492776ba7be,
        type: 3}
      propertyPath: m_LocalRotation.y
      value: -0
      objectReference: {fileID: 0}
    - target: {fileID: -8679921383154817045, guid: 596e2f87c520b75449550492776ba7be,
        type: 3}
      propertyPath: m_LocalRotation.z
      value: -0
      objectReference: {fileID: 0}
    - target: {fileID: -8679921383154817045, guid: 596e2f87c520b75449550492776ba7be,
        type: 3}
      propertyPath: m_LocalEulerAnglesHint.x
      value: 0
      objectReference: {fileID: 0}
    - target: {fileID: -8679921383154817045, guid: 596e2f87c520b75449550492776ba7be,
        type: 3}
      propertyPath: m_LocalEulerAnglesHint.y
      value: 0
      objectReference: {fileID: 0}
    - target: {fileID: -8679921383154817045, guid: 596e2f87c520b75449550492776ba7be,
        type: 3}
      propertyPath: m_LocalEulerAnglesHint.z
      value: 0
      objectReference: {fileID: 0}
    - target: {fileID: 919132149155446097, guid: 596e2f87c520b75449550492776ba7be,
        type: 3}
      propertyPath: m_Name
      value: GoldenEagle_LOD0
      objectReference: {fileID: 0}
    - target: {fileID: 5866666021909216657, guid: 596e2f87c520b75449550492776ba7be,
        type: 3}
      propertyPath: m_Controller
      value: 
      objectReference: {fileID: 9100000, guid: 04b242b7c83dd274d869d36983b1f978, type: 2}
    m_RemovedComponents: []
  m_SourcePrefab: {fileID: 100100000, guid: 596e2f87c520b75449550492776ba7be, type: 3}
--- !u!1 &4016888369175928677 stripped
GameObject:
  m_CorrespondingSourceObject: {fileID: 919132149155446097, guid: 596e2f87c520b75449550492776ba7be,
    type: 3}
  m_PrefabInstance: {fileID: 4287342602143670836}
  m_PrefabAsset: {fileID: 0}
