%YAML 1.1
%TAG !u! tag:unity3d.com,2011:
--- !u!136 &9150508645094396198
CapsuleCollider:
  m_ObjectHideFlags: 0
  m_CorrespondingSourceObject: {fileID: 0}
  m_PrefabInstance: {fileID: 0}
  m_PrefabAsset: {fileID: 0}
  m_GameObject: {fileID: 7470064024841753897}
  m_Material: {fileID: 0}
  m_IsTrigger: 0
  m_Enabled: 1
  m_Radius: 0.74564594
  m_Height: 2.4905298
  m_Direction: 1
  m_Center: {x: 0, y: 1.5779632, z: 0.020817459}
--- !u!1001 &7740445822110869624
PrefabInstance:
  m_ObjectHideFlags: 0
  serializedVersion: 2
  m_Modification:
    m_TransformParent: {fileID: 0}
    m_Modifications:
    - target: {fileID: -8679921383154817045, guid: 16e19715ab6adf547b60717bb7dc1045,
        type: 3}
      propertyPath: m_RootOrder
      value: 0
      objectReference: {fileID: 0}
    - target: {fileID: -8679921383154817045, guid: 16e19715ab6adf547b60717bb7dc1045,
        type: 3}
      propertyPath: m_LocalPosition.x
      value: 0
      objectReference: {fileID: 0}
    - target: {fileID: -8679921383154817045, guid: 16e19715ab6adf547b60717bb7dc1045,
        type: 3}
      propertyPath: m_LocalPosition.y
      value: 0
      objectReference: {fileID: 0}
    - target: {fileID: -8679921383154817045, guid: 16e19715ab6adf547b60717bb7dc1045,
        type: 3}
      propertyPath: m_LocalPosition.z
      value: 0
      objectReference: {fileID: 0}
    - target: {fileID: -8679921383154817045, guid: 16e19715ab6adf547b60717bb7dc1045,
        type: 3}
      propertyPath: m_LocalRotation.w
      value: 1
      objectReference: {fileID: 0}
    - target: {fileID: -8679921383154817045, guid: 16e19715ab6adf547b60717bb7dc1045,
        type: 3}
      propertyPath: m_LocalRotation.x
      value: -0
      objectReference: {fileID: 0}
    - target: {fileID: -8679921383154817045, guid: 16e19715ab6adf547b60717bb7dc1045,
        type: 3}
      propertyPath: m_LocalRotation.y
      value: -0
      objectReference: {fileID: 0}
    - target: {fileID: -8679921383154817045, guid: 16e19715ab6adf547b60717bb7dc1045,
        type: 3}
      propertyPath: m_LocalRotation.z
      value: -0
      objectReference: {fileID: 0}
    - target: {fileID: -8679921383154817045, guid: 16e19715ab6adf547b60717bb7dc1045,
        type: 3}
      propertyPath: m_LocalEulerAnglesHint.x
      value: 0
      objectReference: {fileID: 0}
    - target: {fileID: -8679921383154817045, guid: 16e19715ab6adf547b60717bb7dc1045,
        type: 3}
      propertyPath: m_LocalEulerAnglesHint.y
      value: 0
      objectReference: {fileID: 0}
    - target: {fileID: -8679921383154817045, guid: 16e19715ab6adf547b60717bb7dc1045,
        type: 3}
      propertyPath: m_LocalEulerAnglesHint.z
      value: 0
      objectReference: {fileID: 0}
    - target: {fileID: 919132149155446097, guid: 16e19715ab6adf547b60717bb7dc1045,
        type: 3}
      propertyPath: m_Name
      value: Goose_LOD0
      objectReference: {fileID: 0}
    - target: {fileID: 5866666021909216657, guid: 16e19715ab6adf547b60717bb7dc1045,
        type: 3}
      propertyPath: m_Controller
      value: 
      objectReference: {fileID: 9100000, guid: 37dac05c45c85c043ab6c7aeff000f43, type: 2}
    m_RemovedComponents: []
  m_SourcePrefab: {fileID: 100100000, guid: 16e19715ab6adf547b60717bb7dc1045, type: 3}
--- !u!1 &7470064024841753897 stripped
GameObject:
  m_CorrespondingSourceObject: {fileID: 919132149155446097, guid: 16e19715ab6adf547b60717bb7dc1045,
    type: 3}
  m_PrefabInstance: {fileID: 7740445822110869624}
  m_PrefabAsset: {fileID: 0}
