%YAML 1.1
%TAG !u! tag:unity3d.com,2011:
--- !u!136 &2701456844607524996
CapsuleCollider:
  m_ObjectHideFlags: 0
  m_CorrespondingSourceObject: {fileID: 0}
  m_PrefabInstance: {fileID: 0}
  m_PrefabAsset: {fileID: 0}
  m_GameObject: {fileID: 1711837740241596192}
  m_Material: {fileID: 0}
  m_IsTrigger: 0
  m_Enabled: 1
  m_Radius: 0.6290682
  m_Height: 1.5329273
  m_Direction: 1
  m_Center: {x: 0, y: 1.0408727, z: -0.1290682}
--- !u!1001 &1945768941283971697
PrefabInstance:
  m_ObjectHideFlags: 0
  serializedVersion: 2
  m_Modification:
    m_TransformParent: {fileID: 0}
    m_Modifications:
    - target: {fileID: -8679921383154817045, guid: 6d1c7c41cb2bd6546960679165716302,
        type: 3}
      propertyPath: m_RootOrder
      value: 0
      objectReference: {fileID: 0}
    - target: {fileID: -8679921383154817045, guid: 6d1c7c41cb2bd6546960679165716302,
        type: 3}
      propertyPath: m_LocalPosition.x
      value: 0
      objectReference: {fileID: 0}
    - target: {fileID: -8679921383154817045, guid: 6d1c7c41cb2bd6546960679165716302,
        type: 3}
      propertyPath: m_LocalPosition.y
      value: 0
      objectReference: {fileID: 0}
    - target: {fileID: -8679921383154817045, guid: 6d1c7c41cb2bd6546960679165716302,
        type: 3}
      propertyPath: m_LocalPosition.z
      value: 0
      objectReference: {fileID: 0}
    - target: {fileID: -8679921383154817045, guid: 6d1c7c41cb2bd6546960679165716302,
        type: 3}
      propertyPath: m_LocalRotation.w
      value: 1
      objectReference: {fileID: 0}
    - target: {fileID: -8679921383154817045, guid: 6d1c7c41cb2bd6546960679165716302,
        type: 3}
      propertyPath: m_LocalRotation.x
      value: -0
      objectReference: {fileID: 0}
    - target: {fileID: -8679921383154817045, guid: 6d1c7c41cb2bd6546960679165716302,
        type: 3}
      propertyPath: m_LocalRotation.y
      value: -0
      objectReference: {fileID: 0}
    - target: {fileID: -8679921383154817045, guid: 6d1c7c41cb2bd6546960679165716302,
        type: 3}
      propertyPath: m_LocalRotation.z
      value: -0
      objectReference: {fileID: 0}
    - target: {fileID: -8679921383154817045, guid: 6d1c7c41cb2bd6546960679165716302,
        type: 3}
      propertyPath: m_LocalEulerAnglesHint.x
      value: 0
      objectReference: {fileID: 0}
    - target: {fileID: -8679921383154817045, guid: 6d1c7c41cb2bd6546960679165716302,
        type: 3}
      propertyPath: m_LocalEulerAnglesHint.y
      value: 0
      objectReference: {fileID: 0}
    - target: {fileID: -8679921383154817045, guid: 6d1c7c41cb2bd6546960679165716302,
        type: 3}
      propertyPath: m_LocalEulerAnglesHint.z
      value: 0
      objectReference: {fileID: 0}
    - target: {fileID: 919132149155446097, guid: 6d1c7c41cb2bd6546960679165716302,
        type: 3}
      propertyPath: m_Name
      value: Hornbill_LOD2
      objectReference: {fileID: 0}
    - target: {fileID: 5866666021909216657, guid: 6d1c7c41cb2bd6546960679165716302,
        type: 3}
      propertyPath: m_Controller
      value: 
      objectReference: {fileID: 9100000, guid: 2afa8fe552bb6ab4fb6bc0620a827e44, type: 2}
    m_RemovedComponents: []
  m_SourcePrefab: {fileID: 100100000, guid: 6d1c7c41cb2bd6546960679165716302, type: 3}
--- !u!1 &1711837740241596192 stripped
GameObject:
  m_CorrespondingSourceObject: {fileID: 919132149155446097, guid: 6d1c7c41cb2bd6546960679165716302,
    type: 3}
  m_PrefabInstance: {fileID: 1945768941283971697}
  m_PrefabAsset: {fileID: 0}
