%YAML 1.1
%TAG !u! tag:unity3d.com,2011:
--- !u!136 &278473589380158906
CapsuleCollider:
  m_ObjectHideFlags: 0
  m_CorrespondingSourceObject: {fileID: 0}
  m_PrefabInstance: {fileID: 0}
  m_PrefabAsset: {fileID: 0}
  m_GameObject: {fileID: 7291877914118574471}
  m_Material: {fileID: 0}
  m_IsTrigger: 0
  m_Enabled: 1
  m_Radius: 0.68735707
  m_Height: 1.8077173
  m_Direction: 1
  m_Center: {x: 0, y: 1.1033254, z: 0.13739514}
--- !u!1001 &7633774566514420950
PrefabInstance:
  m_ObjectHideFlags: 0
  serializedVersion: 2
  m_Modification:
    m_TransformParent: {fileID: 0}
    m_Modifications:
    - target: {fileID: -8679921383154817045, guid: caaaa39dfd62149468677b637fdd6adf,
        type: 3}
      propertyPath: m_RootOrder
      value: 0
      objectReference: {fileID: 0}
    - target: {fileID: -8679921383154817045, guid: caaaa39dfd62149468677b637fdd6adf,
        type: 3}
      propertyPath: m_LocalPosition.x
      value: 0
      objectReference: {fileID: 0}
    - target: {fileID: -8679921383154817045, guid: caaaa39dfd62149468677b637fdd6adf,
        type: 3}
      propertyPath: m_LocalPosition.y
      value: 0
      objectReference: {fileID: 0}
    - target: {fileID: -8679921383154817045, guid: caaaa39dfd62149468677b637fdd6adf,
        type: 3}
      propertyPath: m_LocalPosition.z
      value: 0
      objectReference: {fileID: 0}
    - target: {fileID: -8679921383154817045, guid: caaaa39dfd62149468677b637fdd6adf,
        type: 3}
      propertyPath: m_LocalRotation.w
      value: 1
      objectReference: {fileID: 0}
    - target: {fileID: -8679921383154817045, guid: caaaa39dfd62149468677b637fdd6adf,
        type: 3}
      propertyPath: m_LocalRotation.x
      value: -0
      objectReference: {fileID: 0}
    - target: {fileID: -8679921383154817045, guid: caaaa39dfd62149468677b637fdd6adf,
        type: 3}
      propertyPath: m_LocalRotation.y
      value: -0
      objectReference: {fileID: 0}
    - target: {fileID: -8679921383154817045, guid: caaaa39dfd62149468677b637fdd6adf,
        type: 3}
      propertyPath: m_LocalRotation.z
      value: -0
      objectReference: {fileID: 0}
    - target: {fileID: -8679921383154817045, guid: caaaa39dfd62149468677b637fdd6adf,
        type: 3}
      propertyPath: m_LocalEulerAnglesHint.x
      value: 0
      objectReference: {fileID: 0}
    - target: {fileID: -8679921383154817045, guid: caaaa39dfd62149468677b637fdd6adf,
        type: 3}
      propertyPath: m_LocalEulerAnglesHint.y
      value: 0
      objectReference: {fileID: 0}
    - target: {fileID: -8679921383154817045, guid: caaaa39dfd62149468677b637fdd6adf,
        type: 3}
      propertyPath: m_LocalEulerAnglesHint.z
      value: 0
      objectReference: {fileID: 0}
    - target: {fileID: 919132149155446097, guid: caaaa39dfd62149468677b637fdd6adf,
        type: 3}
      propertyPath: m_Name
      value: Kakapo_LOD2
      objectReference: {fileID: 0}
    - target: {fileID: 5866666021909216657, guid: caaaa39dfd62149468677b637fdd6adf,
        type: 3}
      propertyPath: m_Controller
      value: 
      objectReference: {fileID: 9100000, guid: d05f25ec62af9ed48a88a50656ed0256, type: 2}
    m_RemovedComponents: []
  m_SourcePrefab: {fileID: 100100000, guid: caaaa39dfd62149468677b637fdd6adf, type: 3}
--- !u!1 &7291877914118574471 stripped
GameObject:
  m_CorrespondingSourceObject: {fileID: 919132149155446097, guid: caaaa39dfd62149468677b637fdd6adf,
    type: 3}
  m_PrefabInstance: {fileID: 7633774566514420950}
  m_PrefabAsset: {fileID: 0}
