%YAML 1.1
%TAG !u! tag:unity3d.com,2011:
--- !u!136 &7166141126072100831
CapsuleCollider:
  m_ObjectHideFlags: 0
  m_CorrespondingSourceObject: {fileID: 0}
  m_PrefabInstance: {fileID: 0}
  m_PrefabAsset: {fileID: 0}
  m_GameObject: {fileID: 4970672364485176236}
  m_Material: {fileID: 0}
  m_IsTrigger: 0
  m_Enabled: 1
  m_Radius: 0.42922068
  m_Height: 1.1498854
  m_Direction: 1
  m_Center: {x: 0, y: 0.7161201, z: 0.029144406}
--- !u!1001 &5204483314092627709
PrefabInstance:
  m_ObjectHideFlags: 0
  serializedVersion: 2
  m_Modification:
    m_TransformParent: {fileID: 0}
    m_Modifications:
    - target: {fileID: -8679921383154817045, guid: 88786a326d04a6d4ead03ff91879b1c2,
        type: 3}
      propertyPath: m_RootOrder
      value: 0
      objectReference: {fileID: 0}
    - target: {fileID: -8679921383154817045, guid: 88786a326d04a6d4ead03ff91879b1c2,
        type: 3}
      propertyPath: m_LocalPosition.x
      value: 0
      objectReference: {fileID: 0}
    - target: {fileID: -8679921383154817045, guid: 88786a326d04a6d4ead03ff91879b1c2,
        type: 3}
      propertyPath: m_LocalPosition.y
      value: 0
      objectReference: {fileID: 0}
    - target: {fileID: -8679921383154817045, guid: 88786a326d04a6d4ead03ff91879b1c2,
        type: 3}
      propertyPath: m_LocalPosition.z
      value: 0
      objectReference: {fileID: 0}
    - target: {fileID: -8679921383154817045, guid: 88786a326d04a6d4ead03ff91879b1c2,
        type: 3}
      propertyPath: m_LocalRotation.w
      value: 1
      objectReference: {fileID: 0}
    - target: {fileID: -8679921383154817045, guid: 88786a326d04a6d4ead03ff91879b1c2,
        type: 3}
      propertyPath: m_LocalRotation.x
      value: -0
      objectReference: {fileID: 0}
    - target: {fileID: -8679921383154817045, guid: 88786a326d04a6d4ead03ff91879b1c2,
        type: 3}
      propertyPath: m_LocalRotation.y
      value: -0
      objectReference: {fileID: 0}
    - target: {fileID: -8679921383154817045, guid: 88786a326d04a6d4ead03ff91879b1c2,
        type: 3}
      propertyPath: m_LocalRotation.z
      value: -0
      objectReference: {fileID: 0}
    - target: {fileID: -8679921383154817045, guid: 88786a326d04a6d4ead03ff91879b1c2,
        type: 3}
      propertyPath: m_LocalEulerAnglesHint.x
      value: 0
      objectReference: {fileID: 0}
    - target: {fileID: -8679921383154817045, guid: 88786a326d04a6d4ead03ff91879b1c2,
        type: 3}
      propertyPath: m_LocalEulerAnglesHint.y
      value: 0
      objectReference: {fileID: 0}
    - target: {fileID: -8679921383154817045, guid: 88786a326d04a6d4ead03ff91879b1c2,
        type: 3}
      propertyPath: m_LocalEulerAnglesHint.z
      value: 0
      objectReference: {fileID: 0}
    - target: {fileID: 919132149155446097, guid: 88786a326d04a6d4ead03ff91879b1c2,
        type: 3}
      propertyPath: m_Name
      value: Kingfisher_LOD3
      objectReference: {fileID: 0}
    - target: {fileID: 5866666021909216657, guid: 88786a326d04a6d4ead03ff91879b1c2,
        type: 3}
      propertyPath: m_Controller
      value: 
      objectReference: {fileID: 9100000, guid: 54fc8f31f4cb5624e9288ea825542abc, type: 2}
    m_RemovedComponents: []
  m_SourcePrefab: {fileID: 100100000, guid: 88786a326d04a6d4ead03ff91879b1c2, type: 3}
--- !u!1 &4970672364485176236 stripped
GameObject:
  m_CorrespondingSourceObject: {fileID: 919132149155446097, guid: 88786a326d04a6d4ead03ff91879b1c2,
    type: 3}
  m_PrefabInstance: {fileID: 5204483314092627709}
  m_PrefabAsset: {fileID: 0}
