%YAML 1.1
%TAG !u! tag:unity3d.com,2011:
--- !u!136 &8756791936691545185
CapsuleCollider:
  m_ObjectHideFlags: 0
  m_CorrespondingSourceObject: {fileID: 0}
  m_PrefabInstance: {fileID: 0}
  m_PrefabAsset: {fileID: 0}
  m_GameObject: {fileID: 1555009534399172979}
  m_Material: {fileID: 0}
  m_IsTrigger: 0
  m_Enabled: 1
  m_Radius: 0.63739514
  m_Height: 1.8243718
  m_Direction: 1
  m_Center: {x: 0, y: 1.1449602, z: -0.062452316}
--- !u!1001 &1825621681502710818
PrefabInstance:
  m_ObjectHideFlags: 0
  serializedVersion: 2
  m_Modification:
    m_TransformParent: {fileID: 0}
    m_Modifications:
    - target: {fileID: -8679921383154817045, guid: 1bed15d6ac662cf458bd00db340f2bbc,
        type: 3}
      propertyPath: m_RootOrder
      value: 0
      objectReference: {fileID: 0}
    - target: {fileID: -8679921383154817045, guid: 1bed15d6ac662cf458bd00db340f2bbc,
        type: 3}
      propertyPath: m_LocalPosition.x
      value: 0
      objectReference: {fileID: 0}
    - target: {fileID: -8679921383154817045, guid: 1bed15d6ac662cf458bd00db340f2bbc,
        type: 3}
      propertyPath: m_LocalPosition.y
      value: 0
      objectReference: {fileID: 0}
    - target: {fileID: -8679921383154817045, guid: 1bed15d6ac662cf458bd00db340f2bbc,
        type: 3}
      propertyPath: m_LocalPosition.z
      value: 0
      objectReference: {fileID: 0}
    - target: {fileID: -8679921383154817045, guid: 1bed15d6ac662cf458bd00db340f2bbc,
        type: 3}
      propertyPath: m_LocalRotation.w
      value: 1
      objectReference: {fileID: 0}
    - target: {fileID: -8679921383154817045, guid: 1bed15d6ac662cf458bd00db340f2bbc,
        type: 3}
      propertyPath: m_LocalRotation.x
      value: -0
      objectReference: {fileID: 0}
    - target: {fileID: -8679921383154817045, guid: 1bed15d6ac662cf458bd00db340f2bbc,
        type: 3}
      propertyPath: m_LocalRotation.y
      value: -0
      objectReference: {fileID: 0}
    - target: {fileID: -8679921383154817045, guid: 1bed15d6ac662cf458bd00db340f2bbc,
        type: 3}
      propertyPath: m_LocalRotation.z
      value: -0
      objectReference: {fileID: 0}
    - target: {fileID: -8679921383154817045, guid: 1bed15d6ac662cf458bd00db340f2bbc,
        type: 3}
      propertyPath: m_LocalEulerAnglesHint.x
      value: 0
      objectReference: {fileID: 0}
    - target: {fileID: -8679921383154817045, guid: 1bed15d6ac662cf458bd00db340f2bbc,
        type: 3}
      propertyPath: m_LocalEulerAnglesHint.y
      value: 0
      objectReference: {fileID: 0}
    - target: {fileID: -8679921383154817045, guid: 1bed15d6ac662cf458bd00db340f2bbc,
        type: 3}
      propertyPath: m_LocalEulerAnglesHint.z
      value: 0
      objectReference: {fileID: 0}
    - target: {fileID: 919132149155446097, guid: 1bed15d6ac662cf458bd00db340f2bbc,
        type: 3}
      propertyPath: m_Name
      value: Mallard_LOD1
      objectReference: {fileID: 0}
    - target: {fileID: 5866666021909216657, guid: 1bed15d6ac662cf458bd00db340f2bbc,
        type: 3}
      propertyPath: m_Controller
      value: 
      objectReference: {fileID: 9100000, guid: ec53c77488fe7b24ab5071b03390c6be, type: 2}
    m_RemovedComponents: []
  m_SourcePrefab: {fileID: 100100000, guid: 1bed15d6ac662cf458bd00db340f2bbc, type: 3}
--- !u!1 &1555009534399172979 stripped
GameObject:
  m_CorrespondingSourceObject: {fileID: 919132149155446097, guid: 1bed15d6ac662cf458bd00db340f2bbc,
    type: 3}
  m_PrefabInstance: {fileID: 1825621681502710818}
  m_PrefabAsset: {fileID: 0}
