%YAML 1.1
%TAG !u! tag:unity3d.com,2011:
--- !u!136 &6899591242948128467
CapsuleCollider:
  m_ObjectHideFlags: 0
  m_CorrespondingSourceObject: {fileID: 0}
  m_PrefabInstance: {fileID: 0}
  m_PrefabAsset: {fileID: 0}
  m_GameObject: {fileID: 3138256653930342753}
  m_Material: {fileID: 0}
  m_IsTrigger: 0
  m_Enabled: 1
  m_Radius: 0.5666158
  m_Height: 1.6578319
  m_Direction: 1
  m_Center: {x: 0, y: 0.95343983, z: 0}
--- !u!1001 &2831702163205067824
PrefabInstance:
  m_ObjectHideFlags: 0
  serializedVersion: 2
  m_Modification:
    m_TransformParent: {fileID: 0}
    m_Modifications:
    - target: {fileID: -8679921383154817045, guid: b574fcf1b4293fe489bcd84f0fbecfcd,
        type: 3}
      propertyPath: m_RootOrder
      value: 0
      objectReference: {fileID: 0}
    - target: {fileID: -8679921383154817045, guid: b574fcf1b4293fe489bcd84f0fbecfcd,
        type: 3}
      propertyPath: m_LocalPosition.x
      value: 0
      objectReference: {fileID: 0}
    - target: {fileID: -8679921383154817045, guid: b574fcf1b4293fe489bcd84f0fbecfcd,
        type: 3}
      propertyPath: m_LocalPosition.y
      value: 0
      objectReference: {fileID: 0}
    - target: {fileID: -8679921383154817045, guid: b574fcf1b4293fe489bcd84f0fbecfcd,
        type: 3}
      propertyPath: m_LocalPosition.z
      value: 0
      objectReference: {fileID: 0}
    - target: {fileID: -8679921383154817045, guid: b574fcf1b4293fe489bcd84f0fbecfcd,
        type: 3}
      propertyPath: m_LocalRotation.w
      value: 1
      objectReference: {fileID: 0}
    - target: {fileID: -8679921383154817045, guid: b574fcf1b4293fe489bcd84f0fbecfcd,
        type: 3}
      propertyPath: m_LocalRotation.x
      value: -0
      objectReference: {fileID: 0}
    - target: {fileID: -8679921383154817045, guid: b574fcf1b4293fe489bcd84f0fbecfcd,
        type: 3}
      propertyPath: m_LocalRotation.y
      value: -0
      objectReference: {fileID: 0}
    - target: {fileID: -8679921383154817045, guid: b574fcf1b4293fe489bcd84f0fbecfcd,
        type: 3}
      propertyPath: m_LocalRotation.z
      value: -0
      objectReference: {fileID: 0}
    - target: {fileID: -8679921383154817045, guid: b574fcf1b4293fe489bcd84f0fbecfcd,
        type: 3}
      propertyPath: m_LocalEulerAnglesHint.x
      value: 0
      objectReference: {fileID: 0}
    - target: {fileID: -8679921383154817045, guid: b574fcf1b4293fe489bcd84f0fbecfcd,
        type: 3}
      propertyPath: m_LocalEulerAnglesHint.y
      value: 0
      objectReference: {fileID: 0}
    - target: {fileID: -8679921383154817045, guid: b574fcf1b4293fe489bcd84f0fbecfcd,
        type: 3}
      propertyPath: m_LocalEulerAnglesHint.z
      value: 0
      objectReference: {fileID: 0}
    - target: {fileID: 919132149155446097, guid: b574fcf1b4293fe489bcd84f0fbecfcd,
        type: 3}
      propertyPath: m_Name
      value: Owl_LOD1
      objectReference: {fileID: 0}
    - target: {fileID: 5866666021909216657, guid: b574fcf1b4293fe489bcd84f0fbecfcd,
        type: 3}
      propertyPath: m_Controller
      value: 
      objectReference: {fileID: 9100000, guid: 4a6784611ea482141ac77f74571b4bb2, type: 2}
    m_RemovedComponents: []
  m_SourcePrefab: {fileID: 100100000, guid: b574fcf1b4293fe489bcd84f0fbecfcd, type: 3}
--- !u!1 &3138256653930342753 stripped
GameObject:
  m_CorrespondingSourceObject: {fileID: 919132149155446097, guid: b574fcf1b4293fe489bcd84f0fbecfcd,
    type: 3}
  m_PrefabInstance: {fileID: 2831702163205067824}
  m_PrefabAsset: {fileID: 0}
