%YAML 1.1
%TAG !u! tag:unity3d.com,2011:
--- !u!136 &1669884881459513405
CapsuleCollider:
  m_ObjectHideFlags: 0
  m_CorrespondingSourceObject: {fileID: 0}
  m_PrefabInstance: {fileID: 0}
  m_PrefabAsset: {fileID: 0}
  m_GameObject: {fileID: 4408754566263482065}
  m_Material: {fileID: 0}
  m_IsTrigger: 0
  m_Enabled: 1
  m_Radius: 0.60825074
  m_Height: 1.6328504
  m_Direction: 1
  m_Center: {x: 0, y: 1.0408727, z: -0.024980903}
--- !u!1001 &3597922255290047360
PrefabInstance:
  m_ObjectHideFlags: 0
  serializedVersion: 2
  m_Modification:
    m_TransformParent: {fileID: 0}
    m_Modifications:
    - target: {fileID: -8679921383154817045, guid: 3f24f4eb24257bb46a2f0c3f7e87c5e0,
        type: 3}
      propertyPath: m_RootOrder
      value: 0
      objectReference: {fileID: 0}
    - target: {fileID: -8679921383154817045, guid: 3f24f4eb24257bb46a2f0c3f7e87c5e0,
        type: 3}
      propertyPath: m_LocalPosition.x
      value: 0
      objectReference: {fileID: 0}
    - target: {fileID: -8679921383154817045, guid: 3f24f4eb24257bb46a2f0c3f7e87c5e0,
        type: 3}
      propertyPath: m_LocalPosition.y
      value: 0
      objectReference: {fileID: 0}
    - target: {fileID: -8679921383154817045, guid: 3f24f4eb24257bb46a2f0c3f7e87c5e0,
        type: 3}
      propertyPath: m_LocalPosition.z
      value: 0
      objectReference: {fileID: 0}
    - target: {fileID: -8679921383154817045, guid: 3f24f4eb24257bb46a2f0c3f7e87c5e0,
        type: 3}
      propertyPath: m_LocalRotation.w
      value: 1
      objectReference: {fileID: 0}
    - target: {fileID: -8679921383154817045, guid: 3f24f4eb24257bb46a2f0c3f7e87c5e0,
        type: 3}
      propertyPath: m_LocalRotation.x
      value: -0
      objectReference: {fileID: 0}
    - target: {fileID: -8679921383154817045, guid: 3f24f4eb24257bb46a2f0c3f7e87c5e0,
        type: 3}
      propertyPath: m_LocalRotation.y
      value: -0
      objectReference: {fileID: 0}
    - target: {fileID: -8679921383154817045, guid: 3f24f4eb24257bb46a2f0c3f7e87c5e0,
        type: 3}
      propertyPath: m_LocalRotation.z
      value: -0
      objectReference: {fileID: 0}
    - target: {fileID: -8679921383154817045, guid: 3f24f4eb24257bb46a2f0c3f7e87c5e0,
        type: 3}
      propertyPath: m_LocalEulerAnglesHint.x
      value: 0
      objectReference: {fileID: 0}
    - target: {fileID: -8679921383154817045, guid: 3f24f4eb24257bb46a2f0c3f7e87c5e0,
        type: 3}
      propertyPath: m_LocalEulerAnglesHint.y
      value: 0
      objectReference: {fileID: 0}
    - target: {fileID: -8679921383154817045, guid: 3f24f4eb24257bb46a2f0c3f7e87c5e0,
        type: 3}
      propertyPath: m_LocalEulerAnglesHint.z
      value: 0
      objectReference: {fileID: 0}
    - target: {fileID: 919132149155446097, guid: 3f24f4eb24257bb46a2f0c3f7e87c5e0,
        type: 3}
      propertyPath: m_Name
      value: Parrot_LOD2
      objectReference: {fileID: 0}
    - target: {fileID: 5866666021909216657, guid: 3f24f4eb24257bb46a2f0c3f7e87c5e0,
        type: 3}
      propertyPath: m_Controller
      value: 
      objectReference: {fileID: 9100000, guid: 12c14d303f887474bb8fb0fbc7aed08e, type: 2}
    m_RemovedComponents: []
  m_SourcePrefab: {fileID: 100100000, guid: 3f24f4eb24257bb46a2f0c3f7e87c5e0, type: 3}
--- !u!1 &4408754566263482065 stripped
GameObject:
  m_CorrespondingSourceObject: {fileID: 919132149155446097, guid: 3f24f4eb24257bb46a2f0c3f7e87c5e0,
    type: 3}
  m_PrefabInstance: {fileID: 3597922255290047360}
  m_PrefabAsset: {fileID: 0}
