%YAML 1.1
%TAG !u! tag:unity3d.com,2011:
--- !u!136 &3757184150640701404
CapsuleCollider:
  m_ObjectHideFlags: 0
  m_CorrespondingSourceObject: {fileID: 0}
  m_PrefabInstance: {fileID: 0}
  m_PrefabAsset: {fileID: 0}
  m_GameObject: {fileID: 3101000401362865554}
  m_Material: {fileID: 0}
  m_IsTrigger: 0
  m_Enabled: 1
  m_Radius: 0.6623761
  m_Height: 2.1990855
  m_Direction: 1
  m_Center: {x: 0, y: 1.5071839, z: 0.1623761}
--- !u!1001 &2866997179088564419
PrefabInstance:
  m_ObjectHideFlags: 0
  serializedVersion: 2
  m_Modification:
    m_TransformParent: {fileID: 0}
    m_Modifications:
    - target: {fileID: -8679921383154817045, guid: 39a3e560b36ec4a458565baf3142104b,
        type: 3}
      propertyPath: m_RootOrder
      value: 0
      objectReference: {fileID: 0}
    - target: {fileID: -8679921383154817045, guid: 39a3e560b36ec4a458565baf3142104b,
        type: 3}
      propertyPath: m_LocalPosition.x
      value: 0
      objectReference: {fileID: 0}
    - target: {fileID: -8679921383154817045, guid: 39a3e560b36ec4a458565baf3142104b,
        type: 3}
      propertyPath: m_LocalPosition.y
      value: 0
      objectReference: {fileID: 0}
    - target: {fileID: -8679921383154817045, guid: 39a3e560b36ec4a458565baf3142104b,
        type: 3}
      propertyPath: m_LocalPosition.z
      value: 0
      objectReference: {fileID: 0}
    - target: {fileID: -8679921383154817045, guid: 39a3e560b36ec4a458565baf3142104b,
        type: 3}
      propertyPath: m_LocalRotation.w
      value: 1
      objectReference: {fileID: 0}
    - target: {fileID: -8679921383154817045, guid: 39a3e560b36ec4a458565baf3142104b,
        type: 3}
      propertyPath: m_LocalRotation.x
      value: -0
      objectReference: {fileID: 0}
    - target: {fileID: -8679921383154817045, guid: 39a3e560b36ec4a458565baf3142104b,
        type: 3}
      propertyPath: m_LocalRotation.y
      value: -0
      objectReference: {fileID: 0}
    - target: {fileID: -8679921383154817045, guid: 39a3e560b36ec4a458565baf3142104b,
        type: 3}
      propertyPath: m_LocalRotation.z
      value: -0
      objectReference: {fileID: 0}
    - target: {fileID: -8679921383154817045, guid: 39a3e560b36ec4a458565baf3142104b,
        type: 3}
      propertyPath: m_LocalEulerAnglesHint.x
      value: 0
      objectReference: {fileID: 0}
    - target: {fileID: -8679921383154817045, guid: 39a3e560b36ec4a458565baf3142104b,
        type: 3}
      propertyPath: m_LocalEulerAnglesHint.y
      value: 0
      objectReference: {fileID: 0}
    - target: {fileID: -8679921383154817045, guid: 39a3e560b36ec4a458565baf3142104b,
        type: 3}
      propertyPath: m_LocalEulerAnglesHint.z
      value: 0
      objectReference: {fileID: 0}
    - target: {fileID: 919132149155446097, guid: 39a3e560b36ec4a458565baf3142104b,
        type: 3}
      propertyPath: m_Name
      value: Pelican_LOD2
      objectReference: {fileID: 0}
    - target: {fileID: 5866666021909216657, guid: 39a3e560b36ec4a458565baf3142104b,
        type: 3}
      propertyPath: m_Controller
      value: 
      objectReference: {fileID: 9100000, guid: 3aec30e6ed3a33446ae82cd46a59ce68, type: 2}
    m_RemovedComponents: []
  m_SourcePrefab: {fileID: 100100000, guid: 39a3e560b36ec4a458565baf3142104b, type: 3}
--- !u!1 &3101000401362865554 stripped
GameObject:
  m_CorrespondingSourceObject: {fileID: 919132149155446097, guid: 39a3e560b36ec4a458565baf3142104b,
    type: 3}
  m_PrefabInstance: {fileID: 2866997179088564419}
  m_PrefabAsset: {fileID: 0}
