%YAML 1.1
%TAG !u! tag:unity3d.com,2011:
--- !u!136 &8158750886938339165
CapsuleCollider:
  m_ObjectHideFlags: 0
  m_CorrespondingSourceObject: {fileID: 0}
  m_PrefabInstance: {fileID: 0}
  m_PrefabAsset: {fileID: 0}
  m_GameObject: {fileID: 3730351246708461018}
  m_Material: {fileID: 0}
  m_IsTrigger: 0
  m_Enabled: 1
  m_Radius: 0.5
  m_Height: 1.3663871
  m_Direction: 1
  m_Center: {x: 0, y: 0.86600626, z: 0}
--- !u!1001 &4541237423148069003
PrefabInstance:
  m_ObjectHideFlags: 0
  serializedVersion: 2
  m_Modification:
    m_TransformParent: {fileID: 0}
    m_Modifications:
    - target: {fileID: -8679921383154817045, guid: 3897fe056f3c7a84798370437aa9c4e7,
        type: 3}
      propertyPath: m_RootOrder
      value: 0
      objectReference: {fileID: 0}
    - target: {fileID: -8679921383154817045, guid: 3897fe056f3c7a84798370437aa9c4e7,
        type: 3}
      propertyPath: m_LocalPosition.x
      value: 0
      objectReference: {fileID: 0}
    - target: {fileID: -8679921383154817045, guid: 3897fe056f3c7a84798370437aa9c4e7,
        type: 3}
      propertyPath: m_LocalPosition.y
      value: 0
      objectReference: {fileID: 0}
    - target: {fileID: -8679921383154817045, guid: 3897fe056f3c7a84798370437aa9c4e7,
        type: 3}
      propertyPath: m_LocalPosition.z
      value: 0
      objectReference: {fileID: 0}
    - target: {fileID: -8679921383154817045, guid: 3897fe056f3c7a84798370437aa9c4e7,
        type: 3}
      propertyPath: m_LocalRotation.w
      value: 1
      objectReference: {fileID: 0}
    - target: {fileID: -8679921383154817045, guid: 3897fe056f3c7a84798370437aa9c4e7,
        type: 3}
      propertyPath: m_LocalRotation.x
      value: -0
      objectReference: {fileID: 0}
    - target: {fileID: -8679921383154817045, guid: 3897fe056f3c7a84798370437aa9c4e7,
        type: 3}
      propertyPath: m_LocalRotation.y
      value: -0
      objectReference: {fileID: 0}
    - target: {fileID: -8679921383154817045, guid: 3897fe056f3c7a84798370437aa9c4e7,
        type: 3}
      propertyPath: m_LocalRotation.z
      value: -0
      objectReference: {fileID: 0}
    - target: {fileID: -8679921383154817045, guid: 3897fe056f3c7a84798370437aa9c4e7,
        type: 3}
      propertyPath: m_LocalEulerAnglesHint.x
      value: 0
      objectReference: {fileID: 0}
    - target: {fileID: -8679921383154817045, guid: 3897fe056f3c7a84798370437aa9c4e7,
        type: 3}
      propertyPath: m_LocalEulerAnglesHint.y
      value: 0
      objectReference: {fileID: 0}
    - target: {fileID: -8679921383154817045, guid: 3897fe056f3c7a84798370437aa9c4e7,
        type: 3}
      propertyPath: m_LocalEulerAnglesHint.z
      value: 0
      objectReference: {fileID: 0}
    - target: {fileID: 919132149155446097, guid: 3897fe056f3c7a84798370437aa9c4e7,
        type: 3}
      propertyPath: m_Name
      value: Puffin_LOD1
      objectReference: {fileID: 0}
    - target: {fileID: 5866666021909216657, guid: 3897fe056f3c7a84798370437aa9c4e7,
        type: 3}
      propertyPath: m_Controller
      value: 
      objectReference: {fileID: 9100000, guid: 6b112aa1614026944a3274fc2ea34b2d, type: 2}
    m_RemovedComponents: []
  m_SourcePrefab: {fileID: 100100000, guid: 3897fe056f3c7a84798370437aa9c4e7, type: 3}
--- !u!1 &3730351246708461018 stripped
GameObject:
  m_CorrespondingSourceObject: {fileID: 919132149155446097, guid: 3897fe056f3c7a84798370437aa9c4e7,
    type: 3}
  m_PrefabInstance: {fileID: 4541237423148069003}
  m_PrefabAsset: {fileID: 0}
