%YAML 1.1
%TAG !u! tag:unity3d.com,2011:
--- !u!136 &8748763329323706993
CapsuleCollider:
  m_ObjectHideFlags: 0
  m_CorrespondingSourceObject: {fileID: 0}
  m_PrefabInstance: {fileID: 0}
  m_PrefabAsset: {fileID: 0}
  m_GameObject: {fileID: 4879633564498653046}
  m_Material: {fileID: 0}
  m_IsTrigger: 0
  m_Enabled: 1
  m_Radius: 0.737319
  m_Height: 2.157451
  m_Direction: 1
  m_Center: {x: 0, y: 1.3031727, z: 0.10408723}
--- !u!1001 &5725932263704547879
PrefabInstance:
  m_ObjectHideFlags: 0
  serializedVersion: 2
  m_Modification:
    m_TransformParent: {fileID: 0}
    m_Modifications:
    - target: {fileID: -8679921383154817045, guid: 1621af36c4eae97419226abd797dfe28,
        type: 3}
      propertyPath: m_RootOrder
      value: 0
      objectReference: {fileID: 0}
    - target: {fileID: -8679921383154817045, guid: 1621af36c4eae97419226abd797dfe28,
        type: 3}
      propertyPath: m_LocalPosition.x
      value: 0
      objectReference: {fileID: 0}
    - target: {fileID: -8679921383154817045, guid: 1621af36c4eae97419226abd797dfe28,
        type: 3}
      propertyPath: m_LocalPosition.y
      value: 0
      objectReference: {fileID: 0}
    - target: {fileID: -8679921383154817045, guid: 1621af36c4eae97419226abd797dfe28,
        type: 3}
      propertyPath: m_LocalPosition.z
      value: 0
      objectReference: {fileID: 0}
    - target: {fileID: -8679921383154817045, guid: 1621af36c4eae97419226abd797dfe28,
        type: 3}
      propertyPath: m_LocalRotation.w
      value: 1
      objectReference: {fileID: 0}
    - target: {fileID: -8679921383154817045, guid: 1621af36c4eae97419226abd797dfe28,
        type: 3}
      propertyPath: m_LocalRotation.x
      value: -0
      objectReference: {fileID: 0}
    - target: {fileID: -8679921383154817045, guid: 1621af36c4eae97419226abd797dfe28,
        type: 3}
      propertyPath: m_LocalRotation.y
      value: -0
      objectReference: {fileID: 0}
    - target: {fileID: -8679921383154817045, guid: 1621af36c4eae97419226abd797dfe28,
        type: 3}
      propertyPath: m_LocalRotation.z
      value: -0
      objectReference: {fileID: 0}
    - target: {fileID: -8679921383154817045, guid: 1621af36c4eae97419226abd797dfe28,
        type: 3}
      propertyPath: m_LocalEulerAnglesHint.x
      value: 0
      objectReference: {fileID: 0}
    - target: {fileID: -8679921383154817045, guid: 1621af36c4eae97419226abd797dfe28,
        type: 3}
      propertyPath: m_LocalEulerAnglesHint.y
      value: 0
      objectReference: {fileID: 0}
    - target: {fileID: -8679921383154817045, guid: 1621af36c4eae97419226abd797dfe28,
        type: 3}
      propertyPath: m_LocalEulerAnglesHint.z
      value: 0
      objectReference: {fileID: 0}
    - target: {fileID: 919132149155446097, guid: 1621af36c4eae97419226abd797dfe28,
        type: 3}
      propertyPath: m_Name
      value: Rooster_LOD2
      objectReference: {fileID: 0}
    - target: {fileID: 5866666021909216657, guid: 1621af36c4eae97419226abd797dfe28,
        type: 3}
      propertyPath: m_Controller
      value: 
      objectReference: {fileID: 9100000, guid: a8b2eca54660d344fbdf15ce691b4bc6, type: 2}
    m_RemovedComponents: []
  m_SourcePrefab: {fileID: 100100000, guid: 1621af36c4eae97419226abd797dfe28, type: 3}
--- !u!1 &4879633564498653046 stripped
GameObject:
  m_CorrespondingSourceObject: {fileID: 919132149155446097, guid: 1621af36c4eae97419226abd797dfe28,
    type: 3}
  m_PrefabInstance: {fileID: 5725932263704547879}
  m_PrefabAsset: {fileID: 0}
