%YAML 1.1
%TAG !u! tag:unity3d.com,2011:
--- !u!136 &7284824012523626776
CapsuleCollider:
  m_ObjectHideFlags: 0
  m_CorrespondingSourceObject: {fileID: 0}
  m_PrefabInstance: {fileID: 0}
  m_PrefabAsset: {fileID: 0}
  m_GameObject: {fileID: 4663933799195323127}
  m_Material: {fileID: 0}
  m_IsTrigger: 0
  m_Enabled: 1
  m_Radius: 0.5624524
  m_Height: 1.516273
  m_Direction: 1
  m_Center: {x: 0, y: 1.0741804, z: -0.062452376}
--- !u!1001 &5510425472354523046
PrefabInstance:
  m_ObjectHideFlags: 0
  serializedVersion: 2
  m_Modification:
    m_TransformParent: {fileID: 0}
    m_Modifications:
    - target: {fileID: -8679921383154817045, guid: 8fbd689fee4a3a94b9b11e8401e47886,
        type: 3}
      propertyPath: m_RootOrder
      value: 0
      objectReference: {fileID: 0}
    - target: {fileID: -8679921383154817045, guid: 8fbd689fee4a3a94b9b11e8401e47886,
        type: 3}
      propertyPath: m_LocalPosition.x
      value: 0
      objectReference: {fileID: 0}
    - target: {fileID: -8679921383154817045, guid: 8fbd689fee4a3a94b9b11e8401e47886,
        type: 3}
      propertyPath: m_LocalPosition.y
      value: 0
      objectReference: {fileID: 0}
    - target: {fileID: -8679921383154817045, guid: 8fbd689fee4a3a94b9b11e8401e47886,
        type: 3}
      propertyPath: m_LocalPosition.z
      value: 0
      objectReference: {fileID: 0}
    - target: {fileID: -8679921383154817045, guid: 8fbd689fee4a3a94b9b11e8401e47886,
        type: 3}
      propertyPath: m_LocalRotation.w
      value: 1
      objectReference: {fileID: 0}
    - target: {fileID: -8679921383154817045, guid: 8fbd689fee4a3a94b9b11e8401e47886,
        type: 3}
      propertyPath: m_LocalRotation.x
      value: -0
      objectReference: {fileID: 0}
    - target: {fileID: -8679921383154817045, guid: 8fbd689fee4a3a94b9b11e8401e47886,
        type: 3}
      propertyPath: m_LocalRotation.y
      value: -0
      objectReference: {fileID: 0}
    - target: {fileID: -8679921383154817045, guid: 8fbd689fee4a3a94b9b11e8401e47886,
        type: 3}
      propertyPath: m_LocalRotation.z
      value: -0
      objectReference: {fileID: 0}
    - target: {fileID: -8679921383154817045, guid: 8fbd689fee4a3a94b9b11e8401e47886,
        type: 3}
      propertyPath: m_LocalEulerAnglesHint.x
      value: 0
      objectReference: {fileID: 0}
    - target: {fileID: -8679921383154817045, guid: 8fbd689fee4a3a94b9b11e8401e47886,
        type: 3}
      propertyPath: m_LocalEulerAnglesHint.y
      value: 0
      objectReference: {fileID: 0}
    - target: {fileID: -8679921383154817045, guid: 8fbd689fee4a3a94b9b11e8401e47886,
        type: 3}
      propertyPath: m_LocalEulerAnglesHint.z
      value: 0
      objectReference: {fileID: 0}
    - target: {fileID: 919132149155446097, guid: 8fbd689fee4a3a94b9b11e8401e47886,
        type: 3}
      propertyPath: m_Name
      value: Seagull_LOD0
      objectReference: {fileID: 0}
    - target: {fileID: 5866666021909216657, guid: 8fbd689fee4a3a94b9b11e8401e47886,
        type: 3}
      propertyPath: m_Controller
      value: 
      objectReference: {fileID: 9100000, guid: 6929dd350055a5c43a4cc66215526bfb, type: 2}
    m_RemovedComponents: []
  m_SourcePrefab: {fileID: 100100000, guid: 8fbd689fee4a3a94b9b11e8401e47886, type: 3}
--- !u!1 &4663933799195323127 stripped
GameObject:
  m_CorrespondingSourceObject: {fileID: 919132149155446097, guid: 8fbd689fee4a3a94b9b11e8401e47886,
    type: 3}
  m_PrefabInstance: {fileID: 5510425472354523046}
  m_PrefabAsset: {fileID: 0}
