%YAML 1.1
%TAG !u! tag:unity3d.com,2011:
--- !u!136 &6126866062814032982
CapsuleCollider:
  m_ObjectHideFlags: 0
  m_CorrespondingSourceObject: {fileID: 0}
  m_PrefabInstance: {fileID: 0}
  m_PrefabAsset: {fileID: 0}
  m_GameObject: {fileID: 2277036751005867993}
  m_Material: {fileID: 0}
  m_IsTrigger: 0
  m_Enabled: 1
  m_Radius: 0.68735707
  m_Height: 2.5238378
  m_Direction: 1
  m_Center: {x: 0, y: 1.9943124, z: 0.18735707}
--- !u!1001 &1394076349340836488
PrefabInstance:
  m_ObjectHideFlags: 0
  serializedVersion: 2
  m_Modification:
    m_TransformParent: {fileID: 0}
    m_Modifications:
    - target: {fileID: -8679921383154817045, guid: f28d99b71aa7ba14ba0a72b12f1406df,
        type: 3}
      propertyPath: m_RootOrder
      value: 0
      objectReference: {fileID: 0}
    - target: {fileID: -8679921383154817045, guid: f28d99b71aa7ba14ba0a72b12f1406df,
        type: 3}
      propertyPath: m_LocalPosition.x
      value: 0
      objectReference: {fileID: 0}
    - target: {fileID: -8679921383154817045, guid: f28d99b71aa7ba14ba0a72b12f1406df,
        type: 3}
      propertyPath: m_LocalPosition.y
      value: 0
      objectReference: {fileID: 0}
    - target: {fileID: -8679921383154817045, guid: f28d99b71aa7ba14ba0a72b12f1406df,
        type: 3}
      propertyPath: m_LocalPosition.z
      value: 0
      objectReference: {fileID: 0}
    - target: {fileID: -8679921383154817045, guid: f28d99b71aa7ba14ba0a72b12f1406df,
        type: 3}
      propertyPath: m_LocalRotation.w
      value: 1
      objectReference: {fileID: 0}
    - target: {fileID: -8679921383154817045, guid: f28d99b71aa7ba14ba0a72b12f1406df,
        type: 3}
      propertyPath: m_LocalRotation.x
      value: -0
      objectReference: {fileID: 0}
    - target: {fileID: -8679921383154817045, guid: f28d99b71aa7ba14ba0a72b12f1406df,
        type: 3}
      propertyPath: m_LocalRotation.y
      value: -0
      objectReference: {fileID: 0}
    - target: {fileID: -8679921383154817045, guid: f28d99b71aa7ba14ba0a72b12f1406df,
        type: 3}
      propertyPath: m_LocalRotation.z
      value: -0
      objectReference: {fileID: 0}
    - target: {fileID: -8679921383154817045, guid: f28d99b71aa7ba14ba0a72b12f1406df,
        type: 3}
      propertyPath: m_LocalEulerAnglesHint.x
      value: 0
      objectReference: {fileID: 0}
    - target: {fileID: -8679921383154817045, guid: f28d99b71aa7ba14ba0a72b12f1406df,
        type: 3}
      propertyPath: m_LocalEulerAnglesHint.y
      value: 0
      objectReference: {fileID: 0}
    - target: {fileID: -8679921383154817045, guid: f28d99b71aa7ba14ba0a72b12f1406df,
        type: 3}
      propertyPath: m_LocalEulerAnglesHint.z
      value: 0
      objectReference: {fileID: 0}
    - target: {fileID: 919132149155446097, guid: f28d99b71aa7ba14ba0a72b12f1406df,
        type: 3}
      propertyPath: m_Name
      value: Shoebill_LOD0
      objectReference: {fileID: 0}
    - target: {fileID: 5866666021909216657, guid: f28d99b71aa7ba14ba0a72b12f1406df,
        type: 3}
      propertyPath: m_Controller
      value: 
      objectReference: {fileID: 9100000, guid: a2816c10c60364c41bb0e5091120b52c, type: 2}
    m_RemovedComponents: []
  m_SourcePrefab: {fileID: 100100000, guid: f28d99b71aa7ba14ba0a72b12f1406df, type: 3}
--- !u!1 &2277036751005867993 stripped
GameObject:
  m_CorrespondingSourceObject: {fileID: 919132149155446097, guid: f28d99b71aa7ba14ba0a72b12f1406df,
    type: 3}
  m_PrefabInstance: {fileID: 1394076349340836488}
  m_PrefabAsset: {fileID: 0}
