%YAML 1.1
%TAG !u! tag:unity3d.com,2011:
--- !u!136 &816401254589546432
CapsuleCollider:
  m_ObjectHideFlags: 0
  m_CorrespondingSourceObject: {fileID: 0}
  m_PrefabInstance: {fileID: 0}
  m_PrefabAsset: {fileID: 0}
  m_GameObject: {fileID: 5616863103159558756}
  m_Material: {fileID: 0}
  m_IsTrigger: 0
  m_Enabled: 1
  m_Radius: 0.68735707
  m_Height: 2.5238378
  m_Direction: 1
  m_Center: {x: 0, y: 1.9943124, z: 0.18735707}
--- !u!1001 &4697943712727031605
PrefabInstance:
  m_ObjectHideFlags: 0
  serializedVersion: 2
  m_Modification:
    m_TransformParent: {fileID: 0}
    m_Modifications:
    - target: {fileID: -8679921383154817045, guid: ea48c15018b95964f9e77ca8fcaeb866,
        type: 3}
      propertyPath: m_RootOrder
      value: 0
      objectReference: {fileID: 0}
    - target: {fileID: -8679921383154817045, guid: ea48c15018b95964f9e77ca8fcaeb866,
        type: 3}
      propertyPath: m_LocalPosition.x
      value: 0
      objectReference: {fileID: 0}
    - target: {fileID: -8679921383154817045, guid: ea48c15018b95964f9e77ca8fcaeb866,
        type: 3}
      propertyPath: m_LocalPosition.y
      value: 0
      objectReference: {fileID: 0}
    - target: {fileID: -8679921383154817045, guid: ea48c15018b95964f9e77ca8fcaeb866,
        type: 3}
      propertyPath: m_LocalPosition.z
      value: 0
      objectReference: {fileID: 0}
    - target: {fileID: -8679921383154817045, guid: ea48c15018b95964f9e77ca8fcaeb866,
        type: 3}
      propertyPath: m_LocalRotation.w
      value: 1
      objectReference: {fileID: 0}
    - target: {fileID: -8679921383154817045, guid: ea48c15018b95964f9e77ca8fcaeb866,
        type: 3}
      propertyPath: m_LocalRotation.x
      value: -0
      objectReference: {fileID: 0}
    - target: {fileID: -8679921383154817045, guid: ea48c15018b95964f9e77ca8fcaeb866,
        type: 3}
      propertyPath: m_LocalRotation.y
      value: -0
      objectReference: {fileID: 0}
    - target: {fileID: -8679921383154817045, guid: ea48c15018b95964f9e77ca8fcaeb866,
        type: 3}
      propertyPath: m_LocalRotation.z
      value: -0
      objectReference: {fileID: 0}
    - target: {fileID: -8679921383154817045, guid: ea48c15018b95964f9e77ca8fcaeb866,
        type: 3}
      propertyPath: m_LocalEulerAnglesHint.x
      value: 0
      objectReference: {fileID: 0}
    - target: {fileID: -8679921383154817045, guid: ea48c15018b95964f9e77ca8fcaeb866,
        type: 3}
      propertyPath: m_LocalEulerAnglesHint.y
      value: 0
      objectReference: {fileID: 0}
    - target: {fileID: -8679921383154817045, guid: ea48c15018b95964f9e77ca8fcaeb866,
        type: 3}
      propertyPath: m_LocalEulerAnglesHint.z
      value: 0
      objectReference: {fileID: 0}
    - target: {fileID: 919132149155446097, guid: ea48c15018b95964f9e77ca8fcaeb866,
        type: 3}
      propertyPath: m_Name
      value: Shoebill_LOD1
      objectReference: {fileID: 0}
    - target: {fileID: 5866666021909216657, guid: ea48c15018b95964f9e77ca8fcaeb866,
        type: 3}
      propertyPath: m_Controller
      value: 
      objectReference: {fileID: 9100000, guid: a2816c10c60364c41bb0e5091120b52c, type: 2}
    m_RemovedComponents: []
  m_SourcePrefab: {fileID: 100100000, guid: ea48c15018b95964f9e77ca8fcaeb866, type: 3}
--- !u!1 &5616863103159558756 stripped
GameObject:
  m_CorrespondingSourceObject: {fileID: 919132149155446097, guid: ea48c15018b95964f9e77ca8fcaeb866,
    type: 3}
  m_PrefabInstance: {fileID: 4697943712727031605}
  m_PrefabAsset: {fileID: 0}
