%YAML 1.1
%TAG !u! tag:unity3d.com,2011:
--- !u!136 &1306907179261944315
CapsuleCollider:
  m_ObjectHideFlags: 0
  m_CorrespondingSourceObject: {fileID: 0}
  m_PrefabInstance: {fileID: 0}
  m_PrefabAsset: {fileID: 0}
  m_GameObject: {fileID: 7126783512593448895}
  m_Material: {fileID: 0}
  m_IsTrigger: 0
  m_Enabled: 1
  m_Radius: 0.68735707
  m_Height: 2.5238378
  m_Direction: 1
  m_Center: {x: 0, y: 1.9943124, z: 0.18735707}
--- !u!1001 &7937033633367524078
PrefabInstance:
  m_ObjectHideFlags: 0
  serializedVersion: 2
  m_Modification:
    m_TransformParent: {fileID: 0}
    m_Modifications:
    - target: {fileID: -8679921383154817045, guid: d6f55b73644f1434db7c25a7559818e7,
        type: 3}
      propertyPath: m_RootOrder
      value: 0
      objectReference: {fileID: 0}
    - target: {fileID: -8679921383154817045, guid: d6f55b73644f1434db7c25a7559818e7,
        type: 3}
      propertyPath: m_LocalPosition.x
      value: 0
      objectReference: {fileID: 0}
    - target: {fileID: -8679921383154817045, guid: d6f55b73644f1434db7c25a7559818e7,
        type: 3}
      propertyPath: m_LocalPosition.y
      value: 0
      objectReference: {fileID: 0}
    - target: {fileID: -8679921383154817045, guid: d6f55b73644f1434db7c25a7559818e7,
        type: 3}
      propertyPath: m_LocalPosition.z
      value: 0
      objectReference: {fileID: 0}
    - target: {fileID: -8679921383154817045, guid: d6f55b73644f1434db7c25a7559818e7,
        type: 3}
      propertyPath: m_LocalRotation.w
      value: 1
      objectReference: {fileID: 0}
    - target: {fileID: -8679921383154817045, guid: d6f55b73644f1434db7c25a7559818e7,
        type: 3}
      propertyPath: m_LocalRotation.x
      value: -0
      objectReference: {fileID: 0}
    - target: {fileID: -8679921383154817045, guid: d6f55b73644f1434db7c25a7559818e7,
        type: 3}
      propertyPath: m_LocalRotation.y
      value: -0
      objectReference: {fileID: 0}
    - target: {fileID: -8679921383154817045, guid: d6f55b73644f1434db7c25a7559818e7,
        type: 3}
      propertyPath: m_LocalRotation.z
      value: -0
      objectReference: {fileID: 0}
    - target: {fileID: -8679921383154817045, guid: d6f55b73644f1434db7c25a7559818e7,
        type: 3}
      propertyPath: m_LocalEulerAnglesHint.x
      value: 0
      objectReference: {fileID: 0}
    - target: {fileID: -8679921383154817045, guid: d6f55b73644f1434db7c25a7559818e7,
        type: 3}
      propertyPath: m_LocalEulerAnglesHint.y
      value: 0
      objectReference: {fileID: 0}
    - target: {fileID: -8679921383154817045, guid: d6f55b73644f1434db7c25a7559818e7,
        type: 3}
      propertyPath: m_LocalEulerAnglesHint.z
      value: 0
      objectReference: {fileID: 0}
    - target: {fileID: 919132149155446097, guid: d6f55b73644f1434db7c25a7559818e7,
        type: 3}
      propertyPath: m_Name
      value: Shoebill_LOD2
      objectReference: {fileID: 0}
    - target: {fileID: 5866666021909216657, guid: d6f55b73644f1434db7c25a7559818e7,
        type: 3}
      propertyPath: m_Controller
      value: 
      objectReference: {fileID: 9100000, guid: a2816c10c60364c41bb0e5091120b52c, type: 2}
    m_RemovedComponents: []
  m_SourcePrefab: {fileID: 100100000, guid: d6f55b73644f1434db7c25a7559818e7, type: 3}
--- !u!1 &7126783512593448895 stripped
GameObject:
  m_CorrespondingSourceObject: {fileID: 919132149155446097, guid: d6f55b73644f1434db7c25a7559818e7,
    type: 3}
  m_PrefabInstance: {fileID: 7937033633367524078}
  m_PrefabAsset: {fileID: 0}
