%YAML 1.1
%TAG !u! tag:unity3d.com,2011:
--- !u!136 &3859551354604406368
CapsuleCollider:
  m_ObjectHideFlags: 0
  m_CorrespondingSourceObject: {fileID: 0}
  m_PrefabInstance: {fileID: 0}
  m_PrefabAsset: {fileID: 0}
  m_GameObject: {fileID: 6703253084355700269}
  m_Material: {fileID: 0}
  m_IsTrigger: 0
  m_Enabled: 1
  m_Radius: 0.62490463
  m_Height: 1.7827365
  m_Direction: 1
  m_Center: {x: 0, y: 1.065854, z: 0}
--- !u!1001 &5892912815439420284
PrefabInstance:
  m_ObjectHideFlags: 0
  serializedVersion: 2
  m_Modification:
    m_TransformParent: {fileID: 0}
    m_Modifications:
    - target: {fileID: -8679921383154817045, guid: fa0a9c5cc2c769c4bac455442e2ae611,
        type: 3}
      propertyPath: m_RootOrder
      value: 0
      objectReference: {fileID: 0}
    - target: {fileID: -8679921383154817045, guid: fa0a9c5cc2c769c4bac455442e2ae611,
        type: 3}
      propertyPath: m_LocalPosition.x
      value: 0
      objectReference: {fileID: 0}
    - target: {fileID: -8679921383154817045, guid: fa0a9c5cc2c769c4bac455442e2ae611,
        type: 3}
      propertyPath: m_LocalPosition.y
      value: 0
      objectReference: {fileID: 0}
    - target: {fileID: -8679921383154817045, guid: fa0a9c5cc2c769c4bac455442e2ae611,
        type: 3}
      propertyPath: m_LocalPosition.z
      value: 0
      objectReference: {fileID: 0}
    - target: {fileID: -8679921383154817045, guid: fa0a9c5cc2c769c4bac455442e2ae611,
        type: 3}
      propertyPath: m_LocalRotation.w
      value: 1
      objectReference: {fileID: 0}
    - target: {fileID: -8679921383154817045, guid: fa0a9c5cc2c769c4bac455442e2ae611,
        type: 3}
      propertyPath: m_LocalRotation.x
      value: -0
      objectReference: {fileID: 0}
    - target: {fileID: -8679921383154817045, guid: fa0a9c5cc2c769c4bac455442e2ae611,
        type: 3}
      propertyPath: m_LocalRotation.y
      value: -0
      objectReference: {fileID: 0}
    - target: {fileID: -8679921383154817045, guid: fa0a9c5cc2c769c4bac455442e2ae611,
        type: 3}
      propertyPath: m_LocalRotation.z
      value: -0
      objectReference: {fileID: 0}
    - target: {fileID: -8679921383154817045, guid: fa0a9c5cc2c769c4bac455442e2ae611,
        type: 3}
      propertyPath: m_LocalEulerAnglesHint.x
      value: 0
      objectReference: {fileID: 0}
    - target: {fileID: -8679921383154817045, guid: fa0a9c5cc2c769c4bac455442e2ae611,
        type: 3}
      propertyPath: m_LocalEulerAnglesHint.y
      value: 0
      objectReference: {fileID: 0}
    - target: {fileID: -8679921383154817045, guid: fa0a9c5cc2c769c4bac455442e2ae611,
        type: 3}
      propertyPath: m_LocalEulerAnglesHint.z
      value: 0
      objectReference: {fileID: 0}
    - target: {fileID: 919132149155446097, guid: fa0a9c5cc2c769c4bac455442e2ae611,
        type: 3}
      propertyPath: m_Name
      value: SnowOwl_LOD3
      objectReference: {fileID: 0}
    - target: {fileID: 5866666021909216657, guid: fa0a9c5cc2c769c4bac455442e2ae611,
        type: 3}
      propertyPath: m_Controller
      value: 
      objectReference: {fileID: 9100000, guid: 0444814b24d68fe4985aa60eb38c3f69, type: 2}
    m_RemovedComponents: []
  m_SourcePrefab: {fileID: 100100000, guid: fa0a9c5cc2c769c4bac455442e2ae611, type: 3}
--- !u!1 &6703253084355700269 stripped
GameObject:
  m_CorrespondingSourceObject: {fileID: 919132149155446097, guid: fa0a9c5cc2c769c4bac455442e2ae611,
    type: 3}
  m_PrefabInstance: {fileID: 5892912815439420284}
  m_PrefabAsset: {fileID: 0}
