%YAML 1.1
%TAG !u! tag:unity3d.com,2011:
--- !u!136 &1021329047947273647
CapsuleCollider:
  m_ObjectHideFlags: 0
  m_CorrespondingSourceObject: {fileID: 0}
  m_PrefabInstance: {fileID: 0}
  m_PrefabAsset: {fileID: 0}
  m_GameObject: {fileID: 377212765152877172}
  m_Material: {fileID: 0}
  m_IsTrigger: 0
  m_Enabled: 1
  m_Radius: 0.67903006
  m_Height: 2.4322414
  m_Direction: 1
  m_Center: {x: 0, y: 1.6071076, z: 0.16237617}
--- !u!1001 &719811586585470757
PrefabInstance:
  m_ObjectHideFlags: 0
  serializedVersion: 2
  m_Modification:
    m_TransformParent: {fileID: 0}
    m_Modifications:
    - target: {fileID: -8679921383154817045, guid: f2de29a180c301a4fbe3efdf162c4ef2,
        type: 3}
      propertyPath: m_RootOrder
      value: 0
      objectReference: {fileID: 0}
    - target: {fileID: -8679921383154817045, guid: f2de29a180c301a4fbe3efdf162c4ef2,
        type: 3}
      propertyPath: m_LocalPosition.x
      value: 0
      objectReference: {fileID: 0}
    - target: {fileID: -8679921383154817045, guid: f2de29a180c301a4fbe3efdf162c4ef2,
        type: 3}
      propertyPath: m_LocalPosition.y
      value: 0
      objectReference: {fileID: 0}
    - target: {fileID: -8679921383154817045, guid: f2de29a180c301a4fbe3efdf162c4ef2,
        type: 3}
      propertyPath: m_LocalPosition.z
      value: 0
      objectReference: {fileID: 0}
    - target: {fileID: -8679921383154817045, guid: f2de29a180c301a4fbe3efdf162c4ef2,
        type: 3}
      propertyPath: m_LocalRotation.w
      value: 1
      objectReference: {fileID: 0}
    - target: {fileID: -8679921383154817045, guid: f2de29a180c301a4fbe3efdf162c4ef2,
        type: 3}
      propertyPath: m_LocalRotation.x
      value: -0
      objectReference: {fileID: 0}
    - target: {fileID: -8679921383154817045, guid: f2de29a180c301a4fbe3efdf162c4ef2,
        type: 3}
      propertyPath: m_LocalRotation.y
      value: -0
      objectReference: {fileID: 0}
    - target: {fileID: -8679921383154817045, guid: f2de29a180c301a4fbe3efdf162c4ef2,
        type: 3}
      propertyPath: m_LocalRotation.z
      value: -0
      objectReference: {fileID: 0}
    - target: {fileID: -8679921383154817045, guid: f2de29a180c301a4fbe3efdf162c4ef2,
        type: 3}
      propertyPath: m_LocalEulerAnglesHint.x
      value: 0
      objectReference: {fileID: 0}
    - target: {fileID: -8679921383154817045, guid: f2de29a180c301a4fbe3efdf162c4ef2,
        type: 3}
      propertyPath: m_LocalEulerAnglesHint.y
      value: 0
      objectReference: {fileID: 0}
    - target: {fileID: -8679921383154817045, guid: f2de29a180c301a4fbe3efdf162c4ef2,
        type: 3}
      propertyPath: m_LocalEulerAnglesHint.z
      value: 0
      objectReference: {fileID: 0}
    - target: {fileID: 919132149155446097, guid: f2de29a180c301a4fbe3efdf162c4ef2,
        type: 3}
      propertyPath: m_Name
      value: Swan_LOD0
      objectReference: {fileID: 0}
    - target: {fileID: 5866666021909216657, guid: f2de29a180c301a4fbe3efdf162c4ef2,
        type: 3}
      propertyPath: m_Controller
      value: 
      objectReference: {fileID: 9100000, guid: b1ae57d57101a2847b772ffce315f44e, type: 2}
    m_RemovedComponents: []
  m_SourcePrefab: {fileID: 100100000, guid: f2de29a180c301a4fbe3efdf162c4ef2, type: 3}
--- !u!1 &377212765152877172 stripped
GameObject:
  m_CorrespondingSourceObject: {fileID: 919132149155446097, guid: f2de29a180c301a4fbe3efdf162c4ef2,
    type: 3}
  m_PrefabInstance: {fileID: 719811586585470757}
  m_PrefabAsset: {fileID: 0}
