%YAML 1.1
%TAG !u! tag:unity3d.com,2011:
--- !u!136 &7183154789243097016
CapsuleCollider:
  m_ObjectHideFlags: 0
  m_CorrespondingSourceObject: {fileID: 0}
  m_PrefabInstance: {fileID: 0}
  m_PrefabAsset: {fileID: 0}
  m_GameObject: {fileID: 6753120125931231834}
  m_Material: {fileID: 0}
  m_IsTrigger: 0
  m_Enabled: 1
  m_Radius: 0.5749428
  m_Height: 1.3747141
  m_Direction: 1
  m_Center: {x: 0, y: 0.93678534, z: -0.03330791}
--- !u!1001 &5870036568225425163
PrefabInstance:
  m_ObjectHideFlags: 0
  serializedVersion: 2
  m_Modification:
    m_TransformParent: {fileID: 0}
    m_Modifications:
    - target: {fileID: -8679921383154817045, guid: 3e65104298315f941a5e38b3199b38a1,
        type: 3}
      propertyPath: m_RootOrder
      value: 0
      objectReference: {fileID: 0}
    - target: {fileID: -8679921383154817045, guid: 3e65104298315f941a5e38b3199b38a1,
        type: 3}
      propertyPath: m_LocalPosition.x
      value: 0
      objectReference: {fileID: 0}
    - target: {fileID: -8679921383154817045, guid: 3e65104298315f941a5e38b3199b38a1,
        type: 3}
      propertyPath: m_LocalPosition.y
      value: 0
      objectReference: {fileID: 0}
    - target: {fileID: -8679921383154817045, guid: 3e65104298315f941a5e38b3199b38a1,
        type: 3}
      propertyPath: m_LocalPosition.z
      value: 0
      objectReference: {fileID: 0}
    - target: {fileID: -8679921383154817045, guid: 3e65104298315f941a5e38b3199b38a1,
        type: 3}
      propertyPath: m_LocalRotation.w
      value: 1
      objectReference: {fileID: 0}
    - target: {fileID: -8679921383154817045, guid: 3e65104298315f941a5e38b3199b38a1,
        type: 3}
      propertyPath: m_LocalRotation.x
      value: -0
      objectReference: {fileID: 0}
    - target: {fileID: -8679921383154817045, guid: 3e65104298315f941a5e38b3199b38a1,
        type: 3}
      propertyPath: m_LocalRotation.y
      value: -0
      objectReference: {fileID: 0}
    - target: {fileID: -8679921383154817045, guid: 3e65104298315f941a5e38b3199b38a1,
        type: 3}
      propertyPath: m_LocalRotation.z
      value: -0
      objectReference: {fileID: 0}
    - target: {fileID: -8679921383154817045, guid: 3e65104298315f941a5e38b3199b38a1,
        type: 3}
      propertyPath: m_LocalEulerAnglesHint.x
      value: 0
      objectReference: {fileID: 0}
    - target: {fileID: -8679921383154817045, guid: 3e65104298315f941a5e38b3199b38a1,
        type: 3}
      propertyPath: m_LocalEulerAnglesHint.y
      value: 0
      objectReference: {fileID: 0}
    - target: {fileID: -8679921383154817045, guid: 3e65104298315f941a5e38b3199b38a1,
        type: 3}
      propertyPath: m_LocalEulerAnglesHint.z
      value: 0
      objectReference: {fileID: 0}
    - target: {fileID: 919132149155446097, guid: 3e65104298315f941a5e38b3199b38a1,
        type: 3}
      propertyPath: m_Name
      value: Toucan_LOD1
      objectReference: {fileID: 0}
    - target: {fileID: 5866666021909216657, guid: 3e65104298315f941a5e38b3199b38a1,
        type: 3}
      propertyPath: m_Controller
      value: 
      objectReference: {fileID: 9100000, guid: 5a2f21a2446af4741acd57fee09947ab, type: 2}
    m_RemovedComponents: []
  m_SourcePrefab: {fileID: 100100000, guid: 3e65104298315f941a5e38b3199b38a1, type: 3}
--- !u!1 &6753120125931231834 stripped
GameObject:
  m_CorrespondingSourceObject: {fileID: 919132149155446097, guid: 3e65104298315f941a5e38b3199b38a1,
    type: 3}
  m_PrefabInstance: {fileID: 5870036568225425163}
  m_PrefabAsset: {fileID: 0}
